EESchema Schematic File Version 2
LIBS:razvan-rescue
LIBS:power
LIBS:device
LIBS:transistors
LIBS:conn
LIBS:linear
LIBS:regul
LIBS:74xx
LIBS:cmos4000
LIBS:adc-dac
LIBS:memory
LIBS:xilinx
LIBS:microcontrollers
LIBS:dsp
LIBS:microchip
LIBS:analog_switches
LIBS:motorola
LIBS:texas
LIBS:intel
LIBS:audio
LIBS:interface
LIBS:digital-audio
LIBS:philips
LIBS:display
LIBS:cypress
LIBS:siliconi
LIBS:opto
LIBS:atmel
LIBS:contrib
LIBS:valves
LIBS:stm32f407vx
LIBS:razvan-cache
EELAYER 25 0
EELAYER END
$Descr A3 16535 11693
encoding utf-8
Sheet 1 1
Title "Controller camion"
Date "Monday, April 20, 2015"
Rev "1"
Comp "NONE"
Comment1 ""
Comment2 ""
Comment3 ""
Comment4 ""
$EndDescr
$Comp
L STM32F407Vx U1
U 1 1 5535248D
P 2950 950
F 0 "U1" H 3100 1100 60  0000 C CNN
F 1 "STM32F407Vx" H 4200 1100 60  0000 C CNN
F 2 "Housings_QFP:LQFP-100_14x14mm_Pitch0.5mm" H 4550 -5850 60  0001 C CNN
F 3 "" H 4550 -5850 60  0000 C CNN
	1    2950 950 
	1    0    0    -1  
$EndComp
$Comp
L C C9
U 1 1 5535264A
P 1800 8650
F 0 "C9" H 1825 8750 50  0000 L CNN
F 1 "2.2u" H 1825 8550 50  0000 L CNN
F 2 "Capacitors_SMD:C_0805_HandSoldering" H 1838 8500 30  0001 C CNN
F 3 "" H 1800 8650 60  0000 C CNN
	1    1800 8650
	1    0    0    -1  
$EndComp
$Comp
L C C5
U 1 1 55352881
P 1450 8650
F 0 "C5" H 1475 8750 50  0000 L CNN
F 1 "2.2u" H 1475 8550 50  0000 L CNN
F 2 "Capacitors_SMD:C_0805_HandSoldering" H 1488 8500 30  0001 C CNN
F 3 "" H 1450 8650 60  0000 C CNN
	1    1450 8650
	1    0    0    -1  
$EndComp
$Comp
L GND #PWR01
U 1 1 553530B8
P 2800 9250
F 0 "#PWR01" H 2800 9000 50  0001 C CNN
F 1 "GND" H 2800 9100 50  0000 C CNN
F 2 "" H 2800 9250 60  0000 C CNN
F 3 "" H 2800 9250 60  0000 C CNN
	1    2800 9250
	1    0    0    -1  
$EndComp
$Comp
L GND #PWR02
U 1 1 553530D2
P 1800 8800
F 0 "#PWR02" H 1800 8550 50  0001 C CNN
F 1 "GND" H 1800 8650 50  0000 C CNN
F 2 "" H 1800 8800 60  0000 C CNN
F 3 "" H 1800 8800 60  0000 C CNN
	1    1800 8800
	1    0    0    -1  
$EndComp
$Comp
L GND #PWR03
U 1 1 553530EC
P 1450 8800
F 0 "#PWR03" H 1450 8550 50  0001 C CNN
F 1 "GND" H 1450 8650 50  0000 C CNN
F 2 "" H 1450 8800 60  0000 C CNN
F 3 "" H 1450 8800 60  0000 C CNN
	1    1450 8800
	1    0    0    -1  
$EndComp
$Comp
L C C12
U 1 1 55353236
P 2550 7750
F 0 "C12" H 2575 7850 50  0000 L CNN
F 1 "100n" H 2575 7650 50  0000 L CNN
F 2 "Capacitors_SMD:C_0805_HandSoldering" H 2588 7600 30  0001 C CNN
F 3 "" H 2550 7750 60  0000 C CNN
	1    2550 7750
	1    0    0    -1  
$EndComp
$Comp
L C C11
U 1 1 553534A0
P 2300 7750
F 0 "C11" H 2325 7850 50  0000 L CNN
F 1 "100n" H 2325 7650 50  0000 L CNN
F 2 "Capacitors_SMD:C_0805_HandSoldering" H 2338 7600 30  0001 C CNN
F 3 "" H 2300 7750 60  0000 C CNN
	1    2300 7750
	1    0    0    -1  
$EndComp
$Comp
L C C10
U 1 1 553534C6
P 2000 7750
F 0 "C10" H 2025 7850 50  0000 L CNN
F 1 "100n" H 2025 7650 50  0000 L CNN
F 2 "Capacitors_SMD:C_0805_HandSoldering" H 2038 7600 30  0001 C CNN
F 3 "" H 2000 7750 60  0000 C CNN
	1    2000 7750
	1    0    0    -1  
$EndComp
$Comp
L C C8
U 1 1 553534F0
P 1750 7750
F 0 "C8" H 1775 7850 50  0000 L CNN
F 1 "100n" H 1775 7650 50  0000 L CNN
F 2 "Capacitors_SMD:C_0805_HandSoldering" H 1788 7600 30  0001 C CNN
F 3 "" H 1750 7750 60  0000 C CNN
	1    1750 7750
	1    0    0    -1  
$EndComp
$Comp
L C C4
U 1 1 55353560
P 1250 7750
F 0 "C4" H 1275 7850 50  0000 L CNN
F 1 "100n" H 1275 7650 50  0000 L CNN
F 2 "Capacitors_SMD:C_0805_HandSoldering" H 1288 7600 30  0001 C CNN
F 3 "" H 1250 7750 60  0000 C CNN
	1    1250 7750
	1    0    0    -1  
$EndComp
$Comp
L C C2
U 1 1 553535C2
P 750 7750
F 0 "C2" H 775 7850 50  0000 L CNN
F 1 "100n" H 775 7650 50  0000 L CNN
F 2 "Capacitors_SMD:C_0805_HandSoldering" H 788 7600 30  0001 C CNN
F 3 "" H 750 7750 60  0000 C CNN
	1    750  7750
	1    0    0    -1  
$EndComp
$Comp
L GND #PWR04
U 1 1 553536F9
P 2550 7900
F 0 "#PWR04" H 2550 7650 50  0001 C CNN
F 1 "GND" H 2550 7750 50  0000 C CNN
F 2 "" H 2550 7900 60  0000 C CNN
F 3 "" H 2550 7900 60  0000 C CNN
	1    2550 7900
	1    0    0    -1  
$EndComp
$Comp
L GND #PWR05
U 1 1 55353793
P 2300 7900
F 0 "#PWR05" H 2300 7650 50  0001 C CNN
F 1 "GND" H 2300 7750 50  0000 C CNN
F 2 "" H 2300 7900 60  0000 C CNN
F 3 "" H 2300 7900 60  0000 C CNN
	1    2300 7900
	1    0    0    -1  
$EndComp
$Comp
L GND #PWR06
U 1 1 553537B4
P 2000 7900
F 0 "#PWR06" H 2000 7650 50  0001 C CNN
F 1 "GND" H 2000 7750 50  0000 C CNN
F 2 "" H 2000 7900 60  0000 C CNN
F 3 "" H 2000 7900 60  0000 C CNN
	1    2000 7900
	1    0    0    -1  
$EndComp
$Comp
L GND #PWR07
U 1 1 553537D5
P 1750 7900
F 0 "#PWR07" H 1750 7650 50  0001 C CNN
F 1 "GND" H 1750 7750 50  0000 C CNN
F 2 "" H 1750 7900 60  0000 C CNN
F 3 "" H 1750 7900 60  0000 C CNN
	1    1750 7900
	1    0    0    -1  
$EndComp
$Comp
L GND #PWR08
U 1 1 55353822
P 1250 7900
F 0 "#PWR08" H 1250 7650 50  0001 C CNN
F 1 "GND" H 1250 7750 50  0000 C CNN
F 2 "" H 1250 7900 60  0000 C CNN
F 3 "" H 1250 7900 60  0000 C CNN
	1    1250 7900
	1    0    0    -1  
$EndComp
$Comp
L GND #PWR09
U 1 1 5535398C
P 750 7900
F 0 "#PWR09" H 750 7650 50  0001 C CNN
F 1 "GND" H 750 7750 50  0000 C CNN
F 2 "" H 750 7900 60  0000 C CNN
F 3 "" H 750 7900 60  0000 C CNN
	1    750  7900
	1    0    0    -1  
$EndComp
$Comp
L +3.3V #PWR010
U 1 1 55353B3F
P 2650 6600
F 0 "#PWR010" H 2650 6450 50  0001 C CNN
F 1 "+3.3V" H 2650 6740 50  0000 C CNN
F 2 "" H 2650 6600 60  0000 C CNN
F 3 "" H 2650 6600 60  0000 C CNN
	1    2650 6600
	0    -1   -1   0   
$EndComp
$Comp
L Crystal Y1
U 1 1 5535431C
P 1150 6200
F 0 "Y1" H 1150 6350 50  0000 C CNN
F 1 "LFXTAL020423" H 1150 6050 50  0000 C CNN
F 2 "models:LFXTAL020423" H 1150 6200 60  0001 C CNN
F 3 "" H 1150 6200 60  0000 C CNN
	1    1150 6200
	1    0    0    -1  
$EndComp
$Comp
L C C1
U 1 1 553546A0
P 750 6350
F 0 "C1" H 775 6450 50  0000 L CNN
F 1 "12p" H 775 6250 50  0000 L CNN
F 2 "Capacitors_SMD:C_0805_HandSoldering" H 788 6200 30  0001 C CNN
F 3 "" H 750 6350 60  0000 C CNN
	1    750  6350
	1    0    0    -1  
$EndComp
$Comp
L C C7
U 1 1 553547D2
P 1550 6350
F 0 "C7" H 1575 6450 50  0000 L CNN
F 1 "12p" H 1575 6250 50  0000 L CNN
F 2 "Capacitors_SMD:C_0805_HandSoldering" H 1588 6200 30  0001 C CNN
F 3 "" H 1550 6350 60  0000 C CNN
	1    1550 6350
	1    0    0    -1  
$EndComp
$Comp
L GND #PWR011
U 1 1 5535481A
P 750 6500
F 0 "#PWR011" H 750 6250 50  0001 C CNN
F 1 "GND" H 750 6350 50  0000 C CNN
F 2 "" H 750 6500 60  0000 C CNN
F 3 "" H 750 6500 60  0000 C CNN
	1    750  6500
	1    0    0    -1  
$EndComp
$Comp
L GND #PWR012
U 1 1 55354841
P 1550 6500
F 0 "#PWR012" H 1550 6250 50  0001 C CNN
F 1 "GND" H 1550 6350 50  0000 C CNN
F 2 "" H 1550 6500 60  0000 C CNN
F 3 "" H 1550 6500 60  0000 C CNN
	1    1550 6500
	1    0    0    -1  
$EndComp
Text Label 4700 1450 0    60   ~ 0
FIXED_LIS302DL_SCK
Text Label 4700 1550 0    60   ~ 0
FIXED_LIS302DL_MISO
Text Label 4700 1650 0    60   ~ 0
FIXED_LIS302DL_MOSI
Text Label 4800 3450 0    60   ~ 0
FIXED_FTDI_RX
Text Label 4800 3550 0    60   ~ 0
FIXED_FTDI_TX
Text Label 4800 4650 0    60   ~ 0
FIXED_LIGHT_SENSOR
Text Label 4800 4750 0    60   ~ 0
FIXED_BLUETOOTH_RX
Text Label 4800 4850 0    60   ~ 0
FIXED_BLUETOOTH_TX
Text Label 4800 7550 0    60   ~ 0
FIXED_LIS302DL_INT1
Text Label 4800 7650 0    60   ~ 0
FIXED_LIS302DL_INT2
Text Label 4800 7850 0    60   ~ 0
FIXED_LIS302DL_CS
Text Label 14350 900  0    60   ~ 0
Servo_1
Text Label 4750 950  0    60   ~ 0
Servo_1
Text Label 4750 1050 0    60   ~ 0
Servo_2
Text Label 4750 1150 0    60   ~ 0
Servo_3
Text Label 4750 1250 0    60   ~ 0
Servo_4
Text Label 4750 2250 0    60   ~ 0
Servo_5
Text Label 4750 2450 0    60   ~ 0
Servo_6
Text Label 4750 2550 0    60   ~ 0
Servo_7
Text Label 4750 2750 0    60   ~ 0
Servo_8
Text Label 4750 2850 0    60   ~ 0
Servo_9
Text Label 4750 2950 0    60   ~ 0
Servo_10
Text Label 4750 3050 0    60   ~ 0
Servo_11
Text Label 4750 3150 0    60   ~ 0
Servo_12
Text Label 4750 3250 0    60   ~ 0
Servo_13
Text Label 4750 3350 0    60   ~ 0
Servo_14
Text Label 4750 1750 0    60   ~ 0
Lights_Left
Text Label 4750 1850 0    60   ~ 0
Lights_Right
Text Label 4750 1950 0    60   ~ 0
Lights_ShortBeam
Text Label 4750 2050 0    60   ~ 0
Lights_LongBeam
Text Label 14350 1250 0    60   ~ 0
Servo_2
Text Label 14300 1600 0    60   ~ 0
Servo_3
Text Label 14300 1950 0    60   ~ 0
Servo_4
Text Label 14300 2300 0    60   ~ 0
Servo_5
Text Label 14300 2650 0    60   ~ 0
Servo_6
Text Label 14300 3000 0    60   ~ 0
Servo_7
Text Label 14300 3350 0    60   ~ 0
Servo_8
Text Label 14300 3700 0    60   ~ 0
Servo_9
Text Label 14300 4050 0    60   ~ 0
Servo_10
Text Label 14300 4400 0    60   ~ 0
Servo_11
Text Label 14300 4750 0    60   ~ 0
Servo_12
Text Label 14300 5100 0    60   ~ 0
Servo_13
Text Label 14300 5450 0    60   ~ 0
Servo_14
Text Label 4750 3850 0    60   ~ 0
Lights_LeftFog
Text Label 4750 3950 0    60   ~ 0
Lights_RightFog
Text Label 4800 4950 0    60   ~ 0
Lights_Brake
Text Label 4800 5050 0    60   ~ 0
Lights_Reverse
Text Label 4800 6350 0    60   ~ 0
Lights_Aux3
Text Label 4800 6250 0    60   ~ 0
Lights_Aux4
Text Label 4800 8150 0    60   ~ 0
Lights_Aux1
Text Label 4800 8050 0    60   ~ 0
Lights_Aux2
$Comp
L R R4
U 1 1 55368104
P 8100 2850
F 0 "R4" V 8180 2850 50  0000 C CNN
F 1 "1k" V 8100 2850 50  0000 C CNN
F 2 "Resistors_SMD:R_0603" V 8030 2850 30  0001 C CNN
F 3 "" H 8100 2850 30  0000 C CNN
	1    8100 2850
	0    -1   -1   0   
$EndComp
$Comp
L R R5
U 1 1 5536DE6D
P 8250 3350
F 0 "R5" V 8330 3350 50  0000 C CNN
F 1 "1k" V 8250 3350 50  0000 C CNN
F 2 "Resistors_SMD:R_0603" V 8180 3350 30  0001 C CNN
F 3 "" H 8250 3350 30  0000 C CNN
	1    8250 3350
	0    -1   -1   0   
$EndComp
$Comp
L R R6
U 1 1 5536EA92
P 8400 3850
F 0 "R6" V 8480 3850 50  0000 C CNN
F 1 "1k" V 8400 3850 50  0000 C CNN
F 2 "Resistors_SMD:R_0603" V 8330 3850 30  0001 C CNN
F 3 "" H 8400 3850 30  0000 C CNN
	1    8400 3850
	0    -1   -1   0   
$EndComp
$Comp
L R R7
U 1 1 5536EB14
P 8500 4350
F 0 "R7" V 8580 4350 50  0000 C CNN
F 1 "1k" V 8500 4350 50  0000 C CNN
F 2 "Resistors_SMD:R_0603" V 8430 4350 30  0001 C CNN
F 3 "" H 8500 4350 30  0000 C CNN
	1    8500 4350
	0    -1   -1   0   
$EndComp
$Comp
L R R8
U 1 1 5536EB96
P 8650 4800
F 0 "R8" V 8730 4800 50  0000 C CNN
F 1 "1k" V 8650 4800 50  0000 C CNN
F 2 "Resistors_SMD:R_0603" V 8580 4800 30  0001 C CNN
F 3 "" H 8650 4800 30  0000 C CNN
	1    8650 4800
	0    -1   -1   0   
$EndComp
$Comp
L R R9
U 1 1 5536EEBC
P 8800 5300
F 0 "R9" V 8880 5300 50  0000 C CNN
F 1 "1k" V 8800 5300 50  0000 C CNN
F 2 "Resistors_SMD:R_0603" V 8730 5300 30  0001 C CNN
F 3 "" H 8800 5300 30  0000 C CNN
	1    8800 5300
	0    -1   -1   0   
$EndComp
$Comp
L R R10
U 1 1 5536EF3C
P 8950 5800
F 0 "R10" V 9030 5800 50  0000 C CNN
F 1 "1k" V 8950 5800 50  0000 C CNN
F 2 "Resistors_SMD:R_0603" V 8880 5800 30  0001 C CNN
F 3 "" H 8950 5800 30  0000 C CNN
	1    8950 5800
	0    -1   -1   0   
$EndComp
$Comp
L R R11
U 1 1 5536EFC2
P 10450 3800
F 0 "R11" V 10550 3800 50  0000 C CNN
F 1 "1k" V 10450 3800 50  0000 C CNN
F 2 "Resistors_SMD:R_0603" V 10380 3800 30  0001 C CNN
F 3 "" H 10450 3800 30  0000 C CNN
	1    10450 3800
	0    -1   -1   0   
$EndComp
$Comp
L R R12
U 1 1 5536F04A
P 10600 4300
F 0 "R12" V 10680 4300 50  0000 C CNN
F 1 "1k" V 10600 4300 50  0000 C CNN
F 2 "Resistors_SMD:R_0603" V 10530 4300 30  0001 C CNN
F 3 "" H 10600 4300 30  0000 C CNN
	1    10600 4300
	0    1    1    0   
$EndComp
$Comp
L R R13
U 1 1 5536F2AC
P 10750 4800
F 0 "R13" V 10830 4800 50  0000 C CNN
F 1 "1k" V 10750 4800 50  0000 C CNN
F 2 "Resistors_SMD:R_0603" V 10680 4800 30  0001 C CNN
F 3 "" H 10750 4800 30  0000 C CNN
	1    10750 4800
	0    -1   -1   0   
$EndComp
$Comp
L R R14
U 1 1 5536F334
P 10900 5300
F 0 "R14" V 10980 5300 50  0000 C CNN
F 1 "1k" V 10900 5300 50  0000 C CNN
F 2 "Resistors_SMD:R_0603" V 10830 5300 30  0001 C CNN
F 3 "" H 10900 5300 30  0000 C CNN
	1    10900 5300
	0    -1   -1   0   
$EndComp
$Comp
L R R15
U 1 1 5536F44A
P 11100 5800
F 0 "R15" V 11180 5800 50  0000 C CNN
F 1 "1k" V 11100 5800 50  0000 C CNN
F 2 "Resistors_SMD:R_0603" V 11030 5800 30  0001 C CNN
F 3 "" H 11100 5800 30  0000 C CNN
	1    11100 5800
	0    -1   -1   0   
$EndComp
Text Label 7400 2850 0    60   ~ 0
Lights_Left
Text Label 7400 3850 0    60   ~ 0
Lights_ShortBeam
Text Label 7550 4350 0    60   ~ 0
Lights_LongBeam
Text Label 7500 3350 0    60   ~ 0
Lights_Right
Text Label 7800 4800 0    60   ~ 0
Lights_LeftFog
Text Label 8200 5800 0    60   ~ 0
Lights_Brake
Text Label 9600 3800 0    60   ~ 0
Lights_Reverse
Text Label 10200 5300 0    60   ~ 0
Lights_Aux3
Text Label 10400 5800 0    60   ~ 0
Lights_Aux4
Text Label 9900 4300 0    60   ~ 0
Lights_Aux1
Text Label 10050 4800 0    60   ~ 0
Lights_Aux2
Text Label 7900 5300 0    60   ~ 0
Lights_RightFog
$Comp
L R R20
U 1 1 5537A92D
P 14900 900
F 0 "R20" V 14980 900 50  0000 C CNN
F 1 "1k" V 14900 900 50  0000 C CNN
F 2 "Resistors_SMD:R_0603" V 14830 900 30  0001 C CNN
F 3 "" H 14900 900 30  0000 C CNN
	1    14900 900 
	0    1    1    0   
$EndComp
$Comp
L R R21
U 1 1 5537EF7B
P 14900 1250
F 0 "R21" V 14980 1250 50  0000 C CNN
F 1 "1k" V 14900 1250 50  0000 C CNN
F 2 "Resistors_SMD:R_0603" V 14830 1250 30  0001 C CNN
F 3 "" H 14900 1250 30  0000 C CNN
	1    14900 1250
	0    1    1    0   
$EndComp
$Comp
L R R22
U 1 1 5537F03B
P 14850 1600
F 0 "R22" V 14930 1600 50  0000 C CNN
F 1 "1k" V 14850 1600 50  0000 C CNN
F 2 "Resistors_SMD:R_0603" V 14780 1600 30  0001 C CNN
F 3 "" H 14850 1600 30  0000 C CNN
	1    14850 1600
	0    1    1    0   
$EndComp
$Comp
L R R23
U 1 1 5537F0DD
P 14850 1950
F 0 "R23" V 14930 1950 50  0000 C CNN
F 1 "1k" V 14850 1950 50  0000 C CNN
F 2 "Resistors_SMD:R_0603" V 14780 1950 30  0001 C CNN
F 3 "" H 14850 1950 30  0000 C CNN
	1    14850 1950
	0    1    1    0   
$EndComp
$Comp
L R R24
U 1 1 5537F854
P 14850 2300
F 0 "R24" V 14930 2300 50  0000 C CNN
F 1 "1k" V 14850 2300 50  0000 C CNN
F 2 "Resistors_SMD:R_0603" V 14780 2300 30  0001 C CNN
F 3 "" H 14850 2300 30  0000 C CNN
	1    14850 2300
	0    1    1    0   
$EndComp
$Comp
L R R25
U 1 1 55380C7A
P 14850 2650
F 0 "R25" V 14930 2650 50  0000 C CNN
F 1 "1k" V 14850 2650 50  0000 C CNN
F 2 "Resistors_SMD:R_0603" V 14780 2650 30  0001 C CNN
F 3 "" H 14850 2650 30  0000 C CNN
	1    14850 2650
	0    1    1    0   
$EndComp
$Comp
L R R26
U 1 1 55380D2A
P 14850 3000
F 0 "R26" V 14930 3000 50  0000 C CNN
F 1 "1k" V 14850 3000 50  0000 C CNN
F 2 "Resistors_SMD:R_0603" V 14780 3000 30  0001 C CNN
F 3 "" H 14850 3000 30  0000 C CNN
	1    14850 3000
	0    1    1    0   
$EndComp
$Comp
L R R27
U 1 1 55380DD4
P 14850 3350
F 0 "R27" V 14930 3350 50  0000 C CNN
F 1 "1k" V 14850 3350 50  0000 C CNN
F 2 "Resistors_SMD:R_0603" V 14780 3350 30  0001 C CNN
F 3 "" H 14850 3350 30  0000 C CNN
	1    14850 3350
	0    1    1    0   
$EndComp
$Comp
L R R28
U 1 1 55380E7C
P 14850 3700
F 0 "R28" V 14930 3700 50  0000 C CNN
F 1 "1k" V 14850 3700 50  0000 C CNN
F 2 "Resistors_SMD:R_0603" V 14780 3700 30  0001 C CNN
F 3 "" H 14850 3700 30  0000 C CNN
	1    14850 3700
	0    1    1    0   
$EndComp
$Comp
L R R29
U 1 1 5538143C
P 14850 4050
F 0 "R29" V 14930 4050 50  0000 C CNN
F 1 "1k" V 14850 4050 50  0000 C CNN
F 2 "Resistors_SMD:R_0603" V 14780 4050 30  0001 C CNN
F 3 "" H 14850 4050 30  0000 C CNN
	1    14850 4050
	0    1    1    0   
$EndComp
$Comp
L R R30
U 1 1 553814F0
P 14850 4400
F 0 "R30" V 14930 4400 50  0000 C CNN
F 1 "1k" V 14850 4400 50  0000 C CNN
F 2 "Resistors_SMD:R_0603" V 14780 4400 30  0001 C CNN
F 3 "" H 14850 4400 30  0000 C CNN
	1    14850 4400
	0    1    1    0   
$EndComp
$Comp
L R R31
U 1 1 553816B6
P 14850 4750
F 0 "R31" V 14930 4750 50  0000 C CNN
F 1 "1k" V 14850 4750 50  0000 C CNN
F 2 "Resistors_SMD:R_0603" V 14780 4750 30  0001 C CNN
F 3 "" H 14850 4750 30  0000 C CNN
	1    14850 4750
	0    1    1    0   
$EndComp
$Comp
L R R32
U 1 1 55381766
P 14850 5100
F 0 "R32" V 14930 5100 50  0000 C CNN
F 1 "1k" V 14850 5100 50  0000 C CNN
F 2 "Resistors_SMD:R_0603" V 14780 5100 30  0001 C CNN
F 3 "" H 14850 5100 30  0000 C CNN
	1    14850 5100
	0    1    1    0   
$EndComp
$Comp
L R R33
U 1 1 55382046
P 14850 5450
F 0 "R33" V 14930 5450 50  0000 C CNN
F 1 "1k" V 14850 5450 50  0000 C CNN
F 2 "Resistors_SMD:R_0603" V 14780 5450 30  0001 C CNN
F 3 "" H 14850 5450 30  0000 C CNN
	1    14850 5450
	0    1    1    0   
$EndComp
$Comp
L C C17
U 1 1 5538BA6D
P 13250 9000
F 0 "C17" H 13275 9100 50  0000 L CNN
F 1 "100n" H 13275 8900 50  0000 L CNN
F 2 "Capacitors_SMD:C_0805_HandSoldering" H 13288 8850 30  0001 C CNN
F 3 "" H 13250 9000 60  0000 C CNN
	1    13250 9000
	1    0    0    -1  
$EndComp
$Comp
L C C16
U 1 1 5538C5A4
P 12950 9000
F 0 "C16" H 12975 9100 50  0000 L CNN
F 1 "100n" H 12975 8900 50  0000 L CNN
F 2 "Capacitors_SMD:C_0805_HandSoldering" H 12988 8850 30  0001 C CNN
F 3 "" H 12950 9000 60  0000 C CNN
	1    12950 9000
	1    0    0    -1  
$EndComp
$Comp
L C C15
U 1 1 5538C656
P 12700 9000
F 0 "C15" H 12725 9100 50  0000 L CNN
F 1 "100n" H 12725 8900 50  0000 L CNN
F 2 "Capacitors_SMD:C_0805_HandSoldering" H 12738 8850 30  0001 C CNN
F 3 "" H 12700 9000 60  0000 C CNN
	1    12700 9000
	1    0    0    -1  
$EndComp
$Comp
L GND #PWR013
U 1 1 5538D11B
P 12700 9150
F 0 "#PWR013" H 12700 8900 50  0001 C CNN
F 1 "GND" H 12700 9000 50  0000 C CNN
F 2 "" H 12700 9150 60  0000 C CNN
F 3 "" H 12700 9150 60  0000 C CNN
	1    12700 9150
	1    0    0    -1  
$EndComp
$Comp
L GND #PWR014
U 1 1 5538DA3D
P 12950 9150
F 0 "#PWR014" H 12950 8900 50  0001 C CNN
F 1 "GND" H 12950 9000 50  0000 C CNN
F 2 "" H 12950 9150 60  0000 C CNN
F 3 "" H 12950 9150 60  0000 C CNN
	1    12950 9150
	1    0    0    -1  
$EndComp
$Comp
L GND #PWR015
U 1 1 5538DB86
P 13250 9150
F 0 "#PWR015" H 13250 8900 50  0001 C CNN
F 1 "GND" H 13250 9000 50  0000 C CNN
F 2 "" H 13250 9150 60  0000 C CNN
F 3 "" H 13250 9150 60  0000 C CNN
	1    13250 9150
	1    0    0    -1  
$EndComp
$Comp
L GND #PWR016
U 1 1 5538DC2B
P 13600 9500
F 0 "#PWR016" H 13600 9250 50  0001 C CNN
F 1 "GND" H 13600 9350 50  0000 C CNN
F 2 "" H 13600 9500 60  0000 C CNN
F 3 "" H 13600 9500 60  0000 C CNN
	1    13600 9500
	1    0    0    -1  
$EndComp
$Comp
L +3.3V #PWR017
U 1 1 5538F3C1
P 13600 8550
F 0 "#PWR017" H 13600 8400 50  0001 C CNN
F 1 "+3.3V" H 13600 8690 50  0000 C CNN
F 2 "" H 13600 8550 60  0000 C CNN
F 3 "" H 13600 8550 60  0000 C CNN
	1    13600 8550
	1    0    0    -1  
$EndComp
Text Label 14700 8950 0    60   ~ 0
FIXED_LIS302DL_CS
Text Label 14700 8750 0    60   ~ 0
FIXED_LIS302DL_MOSI
Text Label 14700 8850 0    60   ~ 0
FIXED_LIS302DL_MISO
$Comp
L CONN_01X04 BT1
U 1 1 553A394B
P 12000 8300
F 0 "BT1" H 12000 8550 50  0000 C CNN
F 1 "CONN_01X04" V 12100 8300 50  0000 C CNN
F 2 "Pin_Headers:Pin_Header_Straight_1x04" H 12000 8300 60  0001 C CNN
F 3 "" H 12000 8300 60  0000 C CNN
	1    12000 8300
	1    0    0    -1  
$EndComp
$Comp
L GND #PWR018
U 1 1 553A477C
P 11500 8050
F 0 "#PWR018" H 11500 7800 50  0001 C CNN
F 1 "GND" H 11500 7900 50  0000 C CNN
F 2 "" H 11500 8050 60  0000 C CNN
F 3 "" H 11500 8050 60  0000 C CNN
	1    11500 8050
	1    0    0    -1  
$EndComp
$Comp
L GND #PWR019
U 1 1 553A4825
P 8800 8750
F 0 "#PWR019" H 8800 8500 50  0001 C CNN
F 1 "GND" H 8800 8600 50  0000 C CNN
F 2 "" H 8800 8750 60  0000 C CNN
F 3 "" H 8800 8750 60  0000 C CNN
	1    8800 8750
	1    0    0    -1  
$EndComp
Text Label 8400 9150 0    60   ~ 0
FIXED_FTDI_RX
Text Label 10700 8450 0    60   ~ 0
FIXED_BLUETOOTH_RX
Text Label 8400 9050 0    60   ~ 0
FIXED_FTDI_TX
Text Label 10700 8350 0    60   ~ 0
FIXED_BLUETOOTH_TX
Text Label 4800 4250 0    60   ~ 0
ICU_CH0
Text Label 4800 4350 0    60   ~ 0
ICU_CH1
Text Label 4800 4450 0    60   ~ 0
ICU_CH2
Text Label 4800 4550 0    60   ~ 0
ICU_CH3
$Comp
L R R16
U 1 1 553AEA6F
P 14850 6550
F 0 "R16" V 14930 6550 50  0000 C CNN
F 1 "1k" V 14850 6550 50  0000 C CNN
F 2 "Resistors_SMD:R_0603" V 14780 6550 30  0001 C CNN
F 3 "" H 14850 6550 30  0000 C CNN
	1    14850 6550
	0    1    1    0   
$EndComp
$Comp
L R R17
U 1 1 553AEA75
P 14850 6900
F 0 "R17" V 14930 6900 50  0000 C CNN
F 1 "1k" V 14850 6900 50  0000 C CNN
F 2 "Resistors_SMD:R_0603" V 14780 6900 30  0001 C CNN
F 3 "" H 14850 6900 30  0000 C CNN
	1    14850 6900
	0    1    1    0   
$EndComp
$Comp
L R R18
U 1 1 553AEA7B
P 14850 7250
F 0 "R18" V 14930 7250 50  0000 C CNN
F 1 "1k" V 14850 7250 50  0000 C CNN
F 2 "Resistors_SMD:R_0603" V 14780 7250 30  0001 C CNN
F 3 "" H 14850 7250 30  0000 C CNN
	1    14850 7250
	0    1    1    0   
$EndComp
$Comp
L R R19
U 1 1 553AEA81
P 14850 7600
F 0 "R19" V 14930 7600 50  0000 C CNN
F 1 "1k" V 14850 7600 50  0000 C CNN
F 2 "Resistors_SMD:R_0603" V 14780 7600 30  0001 C CNN
F 3 "" H 14850 7600 30  0000 C CNN
	1    14850 7600
	0    1    1    0   
$EndComp
Text Label 14300 6550 0    60   ~ 0
ICU_CH0
Text Label 14300 6900 0    60   ~ 0
ICU_CH1
Text Label 14300 7250 0    60   ~ 0
ICU_CH2
Text Label 14300 7600 0    60   ~ 0
ICU_CH3
Text Label 4800 5950 0    60   ~ 0
Jumper_1
Text Label 4800 6050 0    60   ~ 0
Jumper_2
Text Label 4800 6150 0    60   ~ 0
Jumper_3
Text Label 2250 5400 0    60   ~ 0
Jumper_0
$Comp
L CONN_02X04 JUMPERS1
U 1 1 553B5011
P 10600 10650
F 0 "JUMPERS1" H 10600 10900 50  0000 C CNN
F 1 "CONN_02X04" H 10600 10400 50  0000 C CNN
F 2 "Pin_Headers:Pin_Header_Straight_2x04" H 10600 9450 60  0001 C CNN
F 3 "" H 10600 9450 60  0000 C CNN
	1    10600 10650
	1    0    0    -1  
$EndComp
Text Label 9800 10500 0    60   ~ 0
Jumper_0
Text Label 9800 10800 0    60   ~ 0
Jumper_1
Text Label 9800 10700 0    60   ~ 0
Jumper_2
Text Label 9800 10600 0    60   ~ 0
Jumper_3
$Comp
L GND #PWR020
U 1 1 553B637C
P 11050 10950
F 0 "#PWR020" H 11050 10700 50  0001 C CNN
F 1 "GND" H 11050 10800 50  0000 C CNN
F 2 "" H 11050 10950 60  0000 C CNN
F 3 "" H 11050 10950 60  0000 C CNN
	1    11050 10950
	1    0    0    -1  
$EndComp
$Comp
L R R1
U 1 1 553B9174
P 2000 5400
F 0 "R1" V 2080 5400 50  0000 C CNN
F 1 "10k" V 2000 5400 50  0000 C CNN
F 2 "Resistors_SMD:R_0603" V 1930 5400 30  0001 C CNN
F 3 "" H 2000 5400 30  0000 C CNN
	1    2000 5400
	0    1    1    0   
$EndComp
$Comp
L +3.3V #PWR021
U 1 1 553BBA03
P 1750 5400
F 0 "#PWR021" H 1750 5250 50  0001 C CNN
F 1 "+3.3V" H 1750 5540 50  0000 C CNN
F 2 "" H 1750 5400 60  0000 C CNN
F 3 "" H 1750 5400 60  0000 C CNN
	1    1750 5400
	1    0    0    -1  
$EndComp
$Comp
L CONN_01X05 JTAG1
U 1 1 553C1F3A
P 1450 1400
F 0 "JTAG1" H 1450 1700 50  0000 C CNN
F 1 "CONN_01X05" V 1550 1400 50  0000 C CNN
F 2 "Pin_Headers:Pin_Header_Straight_1x05" H 1450 1400 60  0001 C CNN
F 3 "" H 1450 1400 60  0000 C CNN
	1    1450 1400
	-1   0    0    -1  
$EndComp
$Comp
L R R2
U 1 1 553C31D5
P 2300 1150
F 0 "R2" V 2380 1150 50  0000 C CNN
F 1 "10k" V 2300 1150 50  0000 C CNN
F 2 "Resistors_SMD:R_0603" V 2230 1150 30  0001 C CNN
F 3 "" H 2300 1150 30  0000 C CNN
	1    2300 1150
	-1   0    0    1   
$EndComp
$Comp
L +3.3V #PWR022
U 1 1 553C67C7
P 1800 950
F 0 "#PWR022" H 1800 800 50  0001 C CNN
F 1 "+3.3V" H 1800 1090 50  0000 C CNN
F 2 "" H 1800 950 60  0000 C CNN
F 3 "" H 1800 950 60  0000 C CNN
	1    1800 950 
	1    0    0    -1  
$EndComp
$Comp
L GND #PWR023
U 1 1 553C974E
P 1750 1700
F 0 "#PWR023" H 1750 1450 50  0001 C CNN
F 1 "GND" H 1750 1550 50  0000 C CNN
F 2 "" H 1750 1700 60  0000 C CNN
F 3 "" H 1750 1700 60  0000 C CNN
	1    1750 1700
	1    0    0    -1  
$EndComp
Text Label 4800 5850 0    60   ~ 0
Led
$Comp
L LED-RESCUE-razvan D1
U 1 1 553D0BEE
P 9250 10650
F 0 "D1" H 9250 10750 50  0000 C CNN
F 1 "LED" H 9250 10550 50  0000 C CNN
F 2 "LEDs:LED-3MM" H 9250 10650 60  0001 C CNN
F 3 "" H 9250 10650 60  0000 C CNN
	1    9250 10650
	0    -1   -1   0   
$EndComp
$Comp
L GND #PWR024
U 1 1 553D1B97
P 9250 10950
F 0 "#PWR024" H 9250 10700 50  0001 C CNN
F 1 "GND" H 9250 10800 50  0000 C CNN
F 2 "" H 9250 10950 60  0000 C CNN
F 3 "" H 9250 10950 60  0000 C CNN
	1    9250 10950
	1    0    0    -1  
$EndComp
$Comp
L R R3
U 1 1 553D1D12
P 9250 10200
F 0 "R3" V 9330 10200 50  0000 C CNN
F 1 "1k" V 9250 10200 50  0000 C CNN
F 2 "Resistors_SMD:R_0603" V 9180 10200 30  0001 C CNN
F 3 "" H 9250 10200 30  0000 C CNN
	1    9250 10200
	-1   0    0    1   
$EndComp
Text Label 9100 9950 0    60   ~ 0
Led
$Comp
L GND #PWR025
U 1 1 553D7A16
P 5600 2750
F 0 "#PWR025" H 5600 2500 50  0001 C CNN
F 1 "GND" H 5600 2600 50  0000 C CNN
F 2 "" H 5600 2750 60  0000 C CNN
F 3 "" H 5600 2750 60  0000 C CNN
	1    5600 2750
	1    0    0    -1  
$EndComp
$Comp
L AP1117D33 U2
U 1 1 55379A09
P 4950 10400
F 0 "U2" H 5050 10150 50  0000 C CNN
F 1 "AP1117D33" H 4950 10650 50  0000 C CNN
F 2 "models:TO252" H 4950 10400 60  0001 C CNN
F 3 "" H 4950 10400 60  0000 C CNN
	1    4950 10400
	1    0    0    -1  
$EndComp
$Comp
L +5V #PWR026
U 1 1 5537AFEC
P 2600 10200
F 0 "#PWR026" H 2600 10050 50  0001 C CNN
F 1 "+5V" H 2600 10340 50  0000 C CNN
F 2 "" H 2600 10200 60  0000 C CNN
F 3 "" H 2600 10200 60  0000 C CNN
	1    2600 10200
	1    0    0    -1  
$EndComp
$Comp
L GND #PWR027
U 1 1 5537DCAD
P 4950 10850
F 0 "#PWR027" H 4950 10600 50  0001 C CNN
F 1 "GND" H 4950 10700 50  0000 C CNN
F 2 "" H 4950 10850 60  0000 C CNN
F 3 "" H 4950 10850 60  0000 C CNN
	1    4950 10850
	1    0    0    -1  
$EndComp
$Comp
L +3.3V #PWR028
U 1 1 5537F438
P 5650 10200
F 0 "#PWR028" H 5650 10050 50  0001 C CNN
F 1 "+3.3V" H 5650 10340 50  0000 C CNN
F 2 "" H 5650 10200 60  0000 C CNN
F 3 "" H 5650 10200 60  0000 C CNN
	1    5650 10200
	1    0    0    -1  
$EndComp
$Comp
L C C13
U 1 1 55381746
P 4350 10700
F 0 "C13" H 4375 10800 50  0000 L CNN
F 1 "47u" H 4375 10600 50  0000 L CNN
F 2 "models:EXV226M016A9BAA" H 4388 10550 30  0001 C CNN
F 3 "" H 4350 10700 60  0000 C CNN
	1    4350 10700
	1    0    0    -1  
$EndComp
$Comp
L GND #PWR029
U 1 1 55382310
P 4350 10850
F 0 "#PWR029" H 4350 10600 50  0001 C CNN
F 1 "GND" H 4350 10700 50  0000 C CNN
F 2 "" H 4350 10850 60  0000 C CNN
F 3 "" H 4350 10850 60  0000 C CNN
	1    4350 10850
	1    0    0    -1  
$EndComp
$Comp
L C C14
U 1 1 55382580
P 5650 10700
F 0 "C14" H 5675 10800 50  0000 L CNN
F 1 "47u" H 5675 10600 50  0000 L CNN
F 2 "models:EXV226M016A9BAA" H 5688 10550 30  0001 C CNN
F 3 "" H 5650 10700 60  0000 C CNN
	1    5650 10700
	1    0    0    -1  
$EndComp
$Comp
L GND #PWR030
U 1 1 55382684
P 5650 10850
F 0 "#PWR030" H 5650 10600 50  0001 C CNN
F 1 "GND" H 5650 10700 50  0000 C CNN
F 2 "" H 5650 10850 60  0000 C CNN
F 3 "" H 5650 10850 60  0000 C CNN
	1    5650 10850
	1    0    0    -1  
$EndComp
$Comp
L SW_PUSH SW1
U 1 1 5539FE21
P 1850 2450
F 0 "SW1" H 2000 2560 50  0000 C CNN
F 1 "PTS645SL50-2 LFS" H 1850 2370 50  0000 C CNN
F 2 "models:PTS645" H 1850 2450 60  0001 C CNN
F 3 "" H 1850 2450 60  0000 C CNN
	1    1850 2450
	1    0    0    -1  
$EndComp
$Comp
L GND #PWR031
U 1 1 553A0F7D
P 1400 2650
F 0 "#PWR031" H 1400 2400 50  0001 C CNN
F 1 "GND" H 1400 2500 50  0000 C CNN
F 2 "" H 1400 2650 60  0000 C CNN
F 3 "" H 1400 2650 60  0000 C CNN
	1    1400 2650
	1    0    0    -1  
$EndComp
$Comp
L CONN_01X02 PowerIn1
U 1 1 553AD4AC
P 2200 10450
F 0 "PowerIn1" H 2100 10600 50  0000 C CNN
F 1 "CONN_01X02" V 2300 10300 50  0000 C CNN
F 2 "models:CON_SURUB" H 2200 10450 60  0001 C CNN
F 3 "" H 2200 10450 60  0000 C CNN
	1    2200 10450
	-1   0    0    -1  
$EndComp
$Comp
L GND #PWR032
U 1 1 553ADCF3
P 2600 10700
F 0 "#PWR032" H 2600 10450 50  0001 C CNN
F 1 "GND" H 2600 10550 50  0000 C CNN
F 2 "" H 2600 10700 60  0000 C CNN
F 3 "" H 2600 10700 60  0000 C CNN
	1    2600 10700
	1    0    0    -1  
$EndComp
$Comp
L C C18
U 1 1 553B5F43
P 11500 7800
F 0 "C18" H 11525 7900 50  0000 L CNN
F 1 "47u" H 11525 7700 50  0000 L CNN
F 2 "models:EXV226M016A9BAA" H 11538 7650 30  0001 C CNN
F 3 "" H 11500 7800 60  0000 C CNN
	1    11500 7800
	1    0    0    -1  
$EndComp
$Comp
L D_Schottky-RESCUE-razvan D2
U 1 1 553A6C1D
P 2950 10400
F 0 "D2" H 2950 10500 50  0000 C CNN
F 1 "D_Schottky" H 2950 10300 50  0000 C CNN
F 2 "Diodes_SMD:SMA_Standard" H 2950 10400 60  0001 C CNN
F 3 "" H 2950 10400 60  0000 C CNN
	1    2950 10400
	1    0    0    -1  
$EndComp
$Comp
L CONN_01X02 LIGHT_SENSOR1
U 1 1 553B6882
P 7950 10300
F 0 "LIGHT_SENSOR1" H 7950 10450 50  0000 C CNN
F 1 "CONN_01X02" V 8050 10150 50  0000 C CNN
F 2 "models:CON_SURUB" H 7950 10300 60  0001 C CNN
F 3 "" H 7950 10300 60  0000 C CNN
	1    7950 10300
	1    0    0    1   
$EndComp
$Comp
L +3.3V #PWR033
U 1 1 553B780B
P 7650 10100
F 0 "#PWR033" H 7650 9950 50  0001 C CNN
F 1 "+3.3V" H 7650 10240 50  0000 C CNN
F 2 "" H 7650 10100 60  0000 C CNN
F 3 "" H 7650 10100 60  0000 C CNN
	1    7650 10100
	1    0    0    -1  
$EndComp
Text Label 6500 10350 0    60   ~ 0
FIXED_LIGHT_SENSOR
$Comp
L R R34
U 1 1 553B8C64
P 7500 10750
F 0 "R34" V 7580 10750 50  0000 C CNN
F 1 "10k" V 7500 10750 50  0000 C CNN
F 2 "Resistors_SMD:R_0603" V 7430 10750 30  0001 C CNN
F 3 "" H 7500 10750 30  0000 C CNN
	1    7500 10750
	-1   0    0    1   
$EndComp
$Comp
L R R35
U 1 1 553B9625
P 7700 10750
F 0 "R35" V 7780 10750 50  0000 C CNN
F 1 "10k" V 7700 10750 50  0000 C CNN
F 2 "Resistors_SMD:R_0603" V 7630 10750 30  0001 C CNN
F 3 "" H 7700 10750 30  0000 C CNN
	1    7700 10750
	-1   0    0    1   
$EndComp
$Comp
L GND #PWR034
U 1 1 553BA08B
P 7700 10900
F 0 "#PWR034" H 7700 10650 50  0001 C CNN
F 1 "GND" H 7700 10750 50  0000 C CNN
F 2 "" H 7700 10900 60  0000 C CNN
F 3 "" H 7700 10900 60  0000 C CNN
	1    7700 10900
	1    0    0    -1  
$EndComp
$Comp
L GND #PWR035
U 1 1 553BA236
P 7500 10900
F 0 "#PWR035" H 7500 10650 50  0001 C CNN
F 1 "GND" H 7500 10750 50  0000 C CNN
F 2 "" H 7500 10900 60  0000 C CNN
F 3 "" H 7500 10900 60  0000 C CNN
	1    7500 10900
	1    0    0    -1  
$EndComp
$Comp
L C C19
U 1 1 553D507A
P 2300 2750
F 0 "C19" H 2325 2850 50  0000 L CNN
F 1 "100n" H 2325 2650 50  0000 L CNN
F 2 "Capacitors_SMD:C_0805_HandSoldering" H 2338 2600 30  0001 C CNN
F 3 "" H 2300 2750 60  0000 C CNN
	1    2300 2750
	1    0    0    -1  
$EndComp
$Comp
L GND #PWR036
U 1 1 553D6772
P 2300 2900
F 0 "#PWR036" H 2300 2650 50  0001 C CNN
F 1 "GND" H 2300 2750 50  0000 C CNN
F 2 "" H 2300 2900 60  0000 C CNN
F 3 "" H 2300 2900 60  0000 C CNN
	1    2300 2900
	1    0    0    -1  
$EndComp
$Comp
L SERVO U4
U 1 1 554F7D84
P 15400 900
F 0 "U4" H 15400 1250 60  0000 C CNN
F 1 "SERVO" H 15500 1150 60  0000 C CNN
F 2 "models:ServoConnector" H 15400 900 60  0001 C CNN
F 3 "" H 15400 900 60  0000 C CNN
	1    15400 900 
	1    0    0    -1  
$EndComp
$Comp
L +5V #PWR037
U 1 1 553591A2
P 15150 850
F 0 "#PWR037" H 15150 700 50  0001 C CNN
F 1 "+5V" H 15150 990 50  0000 C CNN
F 2 "" H 15150 850 60  0000 C CNN
F 3 "" H 15150 850 60  0000 C CNN
	1    15150 850 
	1    0    0    -1  
$EndComp
$Comp
L GND #PWR038
U 1 1 55359201
P 15300 5800
F 0 "#PWR038" H 15300 5550 50  0001 C CNN
F 1 "GND" H 15300 5650 50  0000 C CNN
F 2 "" H 15300 5800 60  0000 C CNN
F 3 "" H 15300 5800 60  0000 C CNN
	1    15300 5800
	1    0    0    -1  
$EndComp
Wire Wire Line
	2950 8400 1800 8400
Wire Wire Line
	1800 8400 1800 8500
Wire Wire Line
	2950 8300 1450 8300
Wire Wire Line
	1450 8300 1450 8500
Wire Wire Line
	2800 9050 2950 9050
Wire Wire Line
	2800 8650 2800 9250
Wire Wire Line
	2950 8950 2800 8950
Connection ~ 2800 9050
Wire Wire Line
	2950 8850 2800 8850
Connection ~ 2800 8950
Wire Wire Line
	2950 8750 2800 8750
Connection ~ 2800 8850
Wire Wire Line
	2950 8650 2800 8650
Connection ~ 2800 8750
Wire Wire Line
	2550 7600 2950 7600
Wire Wire Line
	2300 7500 2950 7500
Wire Wire Line
	2300 7500 2300 7600
Wire Wire Line
	2000 7400 2950 7400
Wire Wire Line
	2000 7400 2000 7600
Wire Wire Line
	1750 7300 2950 7300
Wire Wire Line
	1750 7300 1750 7600
Wire Wire Line
	1250 7100 2950 7100
Wire Wire Line
	1250 7100 1250 7600
Wire Wire Line
	750  6800 2950 6800
Wire Wire Line
	750  6800 750  7600
Wire Wire Line
	2650 6600 2950 6600
Wire Wire Line
	2750 6600 2750 7600
Connection ~ 2750 7600
Connection ~ 2750 7500
Connection ~ 2750 7400
Connection ~ 2750 7300
Connection ~ 2750 7200
Connection ~ 2750 7100
Connection ~ 2750 6900
Connection ~ 2750 6800
Connection ~ 2750 6600
Wire Wire Line
	750  5950 2950 5950
Wire Wire Line
	750  5950 750  6200
Wire Wire Line
	750  6200 1000 6200
Wire Wire Line
	1300 6200 1550 6200
Wire Wire Line
	1550 6050 2950 6050
Wire Wire Line
	1550 6200 1550 6050
Connection ~ 1550 6200
Connection ~ 750  6200
Wire Wire Line
	4650 950  5300 950 
Wire Wire Line
	4650 1050 5300 1050
Wire Wire Line
	4650 1150 5300 1150
Wire Wire Line
	4650 1250 5300 1250
Wire Wire Line
	4650 1450 5700 1450
Wire Wire Line
	4650 1550 5700 1550
Wire Wire Line
	4650 1650 5700 1650
Wire Wire Line
	4650 1750 5300 1750
Wire Wire Line
	4650 1850 5300 1850
Wire Wire Line
	4650 1950 5300 1950
Wire Wire Line
	4650 2050 5300 2050
Wire Wire Line
	4650 2250 5300 2250
Wire Wire Line
	4650 3450 5550 3450
Wire Wire Line
	4650 3550 5550 3550
Wire Wire Line
	4650 4650 5800 4650
Wire Wire Line
	4650 4750 5800 4750
Wire Wire Line
	4650 4850 5800 4850
Wire Wire Line
	4650 7550 5800 7550
Wire Wire Line
	4650 7650 5800 7650
Wire Wire Line
	4650 7850 5800 7850
Wire Wire Line
	4650 2450 5300 2450
Wire Wire Line
	4650 2550 5300 2550
Wire Wire Line
	4650 2750 5300 2750
Wire Wire Line
	4650 2850 5300 2850
Wire Wire Line
	4650 2950 5300 2950
Wire Wire Line
	4650 3050 5300 3050
Wire Wire Line
	4650 3150 5300 3150
Wire Wire Line
	4650 3250 5300 3250
Wire Wire Line
	4650 3350 5300 3350
Wire Wire Line
	4650 3850 5300 3850
Wire Wire Line
	4650 3950 5300 3950
Wire Wire Line
	4650 4950 5800 4950
Wire Wire Line
	4650 5050 5800 5050
Wire Wire Line
	4650 6250 5750 6250
Wire Wire Line
	4650 6350 5750 6350
Wire Wire Line
	4650 8050 5800 8050
Wire Wire Line
	4650 8150 5800 8150
Wire Wire Line
	12050 1000 12850 1000
Wire Wire Line
	12050 1200 12850 1200
Wire Wire Line
	12050 1400 12450 1400
Wire Wire Line
	12050 1600 12850 1600
Wire Wire Line
	12050 1800 12450 1800
Wire Wire Line
	12050 2400 12850 2400
Wire Wire Line
	12050 2600 12450 2600
Wire Wire Line
	12050 2800 12850 2800
Wire Wire Line
	12050 3000 12450 3000
Wire Wire Line
	12050 3200 12850 3200
Wire Wire Line
	14750 900  14350 900 
Wire Wire Line
	14700 1950 14300 1950
Wire Wire Line
	14700 1600 14300 1600
Wire Wire Line
	14750 1250 14350 1250
Wire Wire Line
	14700 2300 14300 2300
Wire Wire Line
	14700 2650 14300 2650
Wire Wire Line
	14700 3000 14300 3000
Wire Wire Line
	14300 3350 14700 3350
Wire Wire Line
	14700 3700 14300 3700
Wire Wire Line
	14700 4050 14300 4050
Wire Wire Line
	14700 4400 14300 4400
Wire Wire Line
	14700 4750 14300 4750
Wire Wire Line
	14700 5100 14300 5100
Wire Wire Line
	14700 5450 14300 5450
Wire Wire Line
	13250 8850 13750 8850
Wire Wire Line
	12950 8750 13750 8750
Wire Wire Line
	12950 8750 12950 8850
Wire Wire Line
	12700 8650 13750 8650
Wire Wire Line
	12700 8650 12700 8850
Wire Wire Line
	13600 8550 13600 8850
Connection ~ 13600 8850
Connection ~ 13600 8650
Connection ~ 13600 8750
Wire Wire Line
	13750 8950 13600 8950
Wire Wire Line
	13600 8950 13600 9500
Wire Wire Line
	13600 9050 13750 9050
Connection ~ 13600 9050
Wire Wire Line
	13750 9150 13600 9150
Connection ~ 13600 9150
Wire Wire Line
	13750 9250 13600 9250
Connection ~ 13600 9250
Wire Wire Line
	13750 9350 13600 9350
Connection ~ 13600 9350
Wire Wire Line
	4650 4250 5800 4250
Wire Wire Line
	4650 4350 5800 4350
Wire Wire Line
	4650 4450 5800 4450
Wire Wire Line
	4650 4550 5800 4550
Wire Wire Line
	14700 6550 14300 6550
Wire Wire Line
	14700 6900 14300 6900
Wire Wire Line
	14700 7250 14300 7250
Wire Wire Line
	14700 7600 14300 7600
Wire Wire Line
	4650 5950 5750 5950
Wire Wire Line
	4650 6050 5750 6050
Wire Wire Line
	4650 6150 5750 6150
Wire Wire Line
	2150 5400 2950 5400
Wire Wire Line
	11050 10500 11050 10950
Wire Wire Line
	11050 10500 10850 10500
Wire Wire Line
	10850 10600 11050 10600
Connection ~ 11050 10600
Wire Wire Line
	10850 10700 11050 10700
Connection ~ 11050 10700
Wire Wire Line
	10850 10800 11050 10800
Connection ~ 11050 10800
Wire Wire Line
	10350 10500 9800 10500
Wire Wire Line
	9800 10600 10350 10600
Wire Wire Line
	10350 10700 9800 10700
Wire Wire Line
	9800 10800 10350 10800
Wire Wire Line
	1850 5400 1750 5400
Wire Wire Line
	2950 1400 1650 1400
Wire Wire Line
	2950 1500 1650 1500
Wire Wire Line
	1650 1300 2950 1300
Connection ~ 2300 1300
Wire Wire Line
	1800 1200 1650 1200
Wire Wire Line
	1800 950  1800 1200
Wire Wire Line
	1800 1000 2300 1000
Connection ~ 1800 1000
Wire Wire Line
	1650 1600 1750 1600
Wire Wire Line
	1750 1600 1750 1700
Wire Wire Line
	4650 5850 5750 5850
Wire Wire Line
	9250 10050 9250 9950
Wire Wire Line
	9250 9950 9100 9950
Wire Wire Line
	9250 10350 9250 10450
Wire Wire Line
	9250 10950 9250 10850
Wire Wire Line
	4650 2650 5600 2650
Wire Wire Line
	5600 2650 5600 2750
Wire Wire Line
	8400 9050 9100 9050
Wire Wire Line
	8400 9150 9100 9150
Wire Wire Line
	9100 8950 8950 8950
Wire Wire Line
	8950 8950 8950 8750
Wire Wire Line
	8950 8750 8800 8750
Wire Wire Line
	11800 8350 10700 8350
Wire Wire Line
	10700 8450 11800 8450
Wire Wire Line
	11650 8250 11800 8250
Wire Wire Line
	11650 8000 11650 8250
Wire Wire Line
	5250 10400 5650 10400
Wire Wire Line
	5650 10200 5650 10550
Wire Wire Line
	3950 10400 4650 10400
Wire Wire Line
	4350 10000 4350 10550
Wire Wire Line
	4950 10700 4950 10850
Connection ~ 4350 10400
Connection ~ 5650 10400
Wire Wire Line
	15050 900  15400 900 
Wire Wire Line
	1400 2650 1400 2450
Wire Wire Line
	1400 2450 1550 2450
Wire Wire Line
	2150 2450 2300 2450
Wire Wire Line
	2300 1300 2300 2600
Wire Wire Line
	11500 7600 11800 7600
Wire Wire Line
	11800 7600 11800 8150
Wire Wire Line
	11500 7950 11500 8050
Wire Wire Line
	11500 8000 11650 8000
Connection ~ 11500 8000
Wire Wire Line
	2400 10500 2600 10500
Wire Wire Line
	2600 10500 2600 10700
Wire Wire Line
	2800 10400 2400 10400
Wire Wire Line
	3100 10400 3450 10400
Wire Wire Line
	7750 10250 7650 10250
Wire Wire Line
	7650 10250 7650 10100
Wire Wire Line
	6500 10350 7750 10350
Wire Wire Line
	7700 10600 7700 10350
Connection ~ 7700 10350
Wire Wire Line
	7500 10600 7500 10350
Connection ~ 7500 10350
Connection ~ 2300 2450
Wire Wire Line
	2950 6900 2750 6900
Wire Wire Line
	15300 1100 15300 5800
Wire Wire Line
	15300 1100 15400 1100
Wire Wire Line
	15400 1450 15300 1450
Connection ~ 15300 1450
Wire Wire Line
	15400 1800 15300 1800
Connection ~ 15300 1800
Wire Wire Line
	15400 2150 15300 2150
Connection ~ 15300 2150
Wire Wire Line
	15400 2500 15300 2500
Connection ~ 15300 2500
Wire Wire Line
	15400 2850 15300 2850
Connection ~ 15300 2850
Wire Wire Line
	15400 3200 15300 3200
Connection ~ 15300 3200
Wire Wire Line
	15400 3550 15300 3550
Connection ~ 15300 3550
Wire Wire Line
	15400 3900 15300 3900
Connection ~ 15300 3900
Wire Wire Line
	15400 4250 15300 4250
Connection ~ 15300 4250
Wire Wire Line
	15400 4600 15300 4600
Connection ~ 15300 4600
Wire Wire Line
	15400 4950 15300 4950
Connection ~ 15300 4950
Wire Wire Line
	15400 5300 15300 5300
Connection ~ 15300 5300
Wire Wire Line
	15400 5650 15300 5650
Connection ~ 15300 5650
Wire Wire Line
	15400 1000 15150 1000
Wire Wire Line
	15150 850  15150 5550
Wire Wire Line
	15150 5550 15400 5550
Connection ~ 15150 1000
Wire Wire Line
	15400 5200 15150 5200
Connection ~ 15150 5200
Wire Wire Line
	15400 1350 15150 1350
Connection ~ 15150 1350
Wire Wire Line
	15400 1700 15150 1700
Connection ~ 15150 1700
Wire Wire Line
	15400 2050 15150 2050
Connection ~ 15150 2050
Wire Wire Line
	15400 2400 15150 2400
Connection ~ 15150 2400
Wire Wire Line
	15400 2750 15150 2750
Connection ~ 15150 2750
Wire Wire Line
	15400 3100 15150 3100
Connection ~ 15150 3100
Wire Wire Line
	15400 3450 15150 3450
Connection ~ 15150 3450
Wire Wire Line
	15400 3800 15150 3800
Connection ~ 15150 3800
Wire Wire Line
	15400 4150 15150 4150
Connection ~ 15150 4150
Wire Wire Line
	15400 4500 15150 4500
Connection ~ 15150 4500
Wire Wire Line
	15400 4850 15150 4850
Connection ~ 15150 4850
Wire Wire Line
	15050 1250 15400 1250
Wire Wire Line
	15000 1950 15400 1950
Wire Wire Line
	15400 1600 15000 1600
Wire Wire Line
	15000 2300 15400 2300
Wire Wire Line
	15000 2650 15400 2650
Wire Wire Line
	15400 3000 15000 3000
Wire Wire Line
	15000 3350 15400 3350
Wire Wire Line
	15000 3700 15400 3700
Wire Wire Line
	15400 4050 15000 4050
Wire Wire Line
	15400 4400 15000 4400
Wire Wire Line
	15000 4750 15400 4750
Wire Wire Line
	15400 5100 15000 5100
Wire Wire Line
	15400 5450 15000 5450
$Comp
L ICU J1
U 1 1 5550C953
P 15400 6550
F 0 "J1" H 15550 6650 60  0000 C CNN
F 1 "ICU" H 15850 6650 60  0000 C CNN
F 2 "models:ICU_CONECTOR" H 15400 6550 60  0001 C CNN
F 3 "" H 15400 6550 60  0000 C CNN
	1    15400 6550
	1    0    0    -1  
$EndComp
$Comp
L +5V #PWR039
U 1 1 553AEA29
P 15250 6450
F 0 "#PWR039" H 15250 6300 50  0001 C CNN
F 1 "+5V" H 15250 6590 50  0000 C CNN
F 2 "" H 15250 6450 60  0000 C CNN
F 3 "" H 15250 6450 60  0000 C CNN
	1    15250 6450
	1    0    0    -1  
$EndComp
Wire Wire Line
	15300 6750 15300 7950
Wire Wire Line
	15300 6750 15400 6750
Wire Wire Line
	15400 7100 15300 7100
Connection ~ 15300 7100
Wire Wire Line
	15400 7450 15300 7450
Connection ~ 15300 7450
Wire Wire Line
	15400 7800 15300 7800
Connection ~ 15300 7800
Wire Wire Line
	15250 6450 15250 7700
Wire Wire Line
	15250 7700 15400 7700
Wire Wire Line
	15400 7350 15250 7350
Connection ~ 15250 7350
Wire Wire Line
	15400 7000 15250 7000
Connection ~ 15250 7000
Wire Wire Line
	15400 6650 15250 6650
Connection ~ 15250 6650
Wire Wire Line
	15400 7600 15000 7600
Wire Wire Line
	15000 7250 15400 7250
Wire Wire Line
	15400 6900 15000 6900
Wire Wire Line
	15400 6550 15000 6550
Wire Wire Line
	2950 7200 2750 7200
$Comp
L MF-PSMF035X-2 F2
U 1 1 555A3F91
P 11550 1000
F 0 "F2" H 11500 1100 60  0000 C CNN
F 1 "MF-PSMF035X-2" H 12050 1100 60  0000 C CNN
F 2 "Resistors_SMD:R_0805" H 11550 1000 60  0001 C CNN
F 3 "" H 11550 1000 60  0000 C CNN
	1    11550 1000
	1    0    0    -1  
$EndComp
$Comp
L MF-PSMF035X-2 F3
U 1 1 555A5121
P 11550 1200
F 0 "F3" H 11500 1300 60  0000 C CNN
F 1 "MF-PSMF035X-2" H 12050 1300 60  0000 C CNN
F 2 "Resistors_SMD:R_0805" H 11550 1200 60  0001 C CNN
F 3 "" H 11550 1200 60  0000 C CNN
	1    11550 1200
	1    0    0    -1  
$EndComp
$Comp
L MF-PSMF035X-2 F4
U 1 1 555A51D9
P 11550 1400
F 0 "F4" H 11500 1500 60  0000 C CNN
F 1 "MF-PSMF035X-2" H 12050 1500 60  0000 C CNN
F 2 "Resistors_SMD:R_0805" H 11550 1400 60  0001 C CNN
F 3 "" H 11550 1400 60  0000 C CNN
	1    11550 1400
	1    0    0    -1  
$EndComp
$Comp
L MF-PSMF035X-2 F5
U 1 1 555A5293
P 11550 1600
F 0 "F5" H 11500 1700 60  0000 C CNN
F 1 "MF-PSMF035X-2" H 12050 1700 60  0000 C CNN
F 2 "Resistors_SMD:R_0805" H 11550 1600 60  0001 C CNN
F 3 "" H 11550 1600 60  0000 C CNN
	1    11550 1600
	1    0    0    -1  
$EndComp
$Comp
L MF-PSMF035X-2 F6
U 1 1 555A5691
P 11550 1800
F 0 "F6" H 11500 1900 60  0000 C CNN
F 1 "MF-PSMF035X-2" H 12050 1900 60  0000 C CNN
F 2 "Resistors_SMD:R_0805" H 11550 1800 60  0001 C CNN
F 3 "" H 11550 1800 60  0000 C CNN
	1    11550 1800
	1    0    0    -1  
$EndComp
$Comp
L MF-PSMF035X-2 F7
U 1 1 555A575B
P 11550 2000
F 0 "F7" H 11500 2100 60  0000 C CNN
F 1 "MF-PSMF035X-2" H 12050 2100 60  0000 C CNN
F 2 "Resistors_SMD:R_0805" H 11550 2000 60  0001 C CNN
F 3 "" H 11550 2000 60  0000 C CNN
	1    11550 2000
	1    0    0    -1  
$EndComp
$Comp
L MF-PSMF035X-2 F8
U 1 1 555A5C17
P 11550 2200
F 0 "F8" H 11500 2300 60  0000 C CNN
F 1 "MF-PSMF035X-2" H 12050 2300 60  0000 C CNN
F 2 "Resistors_SMD:R_0805" H 11550 2200 60  0001 C CNN
F 3 "" H 11550 2200 60  0000 C CNN
	1    11550 2200
	1    0    0    -1  
$EndComp
$Comp
L MF-PSMF035X-2 F9
U 1 1 555A5CD9
P 11550 2400
F 0 "F9" H 11500 2500 60  0000 C CNN
F 1 "MF-PSMF035X-2" H 12050 2500 60  0000 C CNN
F 2 "Resistors_SMD:R_0805" H 11550 2400 60  0001 C CNN
F 3 "" H 11550 2400 60  0000 C CNN
	1    11550 2400
	1    0    0    -1  
$EndComp
$Comp
L MF-PSMF035X-2 F10
U 1 1 555A5D9D
P 11550 2600
F 0 "F10" H 11500 2700 60  0000 C CNN
F 1 "MF-PSMF035X-2" H 12050 2700 60  0000 C CNN
F 2 "Resistors_SMD:R_0805" H 11550 2600 60  0001 C CNN
F 3 "" H 11550 2600 60  0000 C CNN
	1    11550 2600
	1    0    0    -1  
$EndComp
$Comp
L MF-PSMF035X-2 F11
U 1 1 555A5E67
P 11550 2800
F 0 "F11" H 11500 2900 60  0000 C CNN
F 1 "MF-PSMF035X-2" H 12050 2900 60  0000 C CNN
F 2 "Resistors_SMD:R_0805" H 11550 2800 60  0001 C CNN
F 3 "" H 11550 2800 60  0000 C CNN
	1    11550 2800
	1    0    0    -1  
$EndComp
$Comp
L MF-PSMF035X-2 F12
U 1 1 555A5F37
P 11550 3000
F 0 "F12" H 11500 3100 60  0000 C CNN
F 1 "MF-PSMF035X-2" H 12050 3100 60  0000 C CNN
F 2 "Resistors_SMD:R_0805" H 11550 3000 60  0001 C CNN
F 3 "" H 11550 3000 60  0000 C CNN
	1    11550 3000
	1    0    0    -1  
$EndComp
$Comp
L MF-PSMF035X-2 F13
U 1 1 555A6001
P 11550 3200
F 0 "F13" H 11500 3300 60  0000 C CNN
F 1 "MF-PSMF035X-2" H 12050 3300 60  0000 C CNN
F 2 "Resistors_SMD:R_0805" H 11550 3200 60  0001 C CNN
F 3 "" H 11550 3200 60  0000 C CNN
	1    11550 3200
	1    0    0    -1  
$EndComp
$Comp
L MF-PSMF035X-2 F1
U 1 1 555A790D
P 3450 10400
F 0 "F1" H 3400 10500 60  0000 C CNN
F 1 "MF-PSMF035X-2" H 3650 10650 60  0000 C CNN
F 2 "Resistors_SMD:R_0805" H 3450 10400 60  0001 C CNN
F 3 "" H 3450 10400 60  0000 C CNN
	1    3450 10400
	1    0    0    -1  
$EndComp
$Comp
L GND #PWR040
U 1 1 55746AF1
P 15300 7950
F 0 "#PWR040" H 15300 7700 50  0001 C CNN
F 1 "GND" H 15300 7800 50  0000 C CNN
F 2 "" H 15300 7950 60  0000 C CNN
F 3 "" H 15300 7950 60  0000 C CNN
	1    15300 7950
	1    0    0    -1  
$EndComp
$Comp
L +5V #PWR041
U 1 1 55B36373
P 12650 850
F 0 "#PWR041" H 12650 700 50  0001 C CNN
F 1 "+5V" H 12650 990 50  0000 C CNN
F 2 "" H 12650 850 60  0000 C CNN
F 3 "" H 12650 850 60  0000 C CNN
	1    12650 850 
	1    0    0    -1  
$EndComp
$Comp
L +5V #PWR042
U 1 1 55B364E2
P 12650 3400
F 0 "#PWR042" H 12650 3250 50  0001 C CNN
F 1 "+5V" H 12650 3540 50  0000 C CNN
F 2 "" H 12650 3400 60  0000 C CNN
F 3 "" H 12650 3400 60  0000 C CNN
	1    12650 3400
	-1   0    0    1   
$EndComp
Wire Wire Line
	2600 10200 2600 10400
Connection ~ 2600 10400
Wire Wire Line
	4350 10000 4650 10000
Text Label 4350 10000 0    60   ~ 0
5V_FUSED
Text Label 9050 7300 0    60   ~ 0
5V_FUSED
Wire Wire Line
	11500 7300 11500 7650
$Comp
L Q_NMOS_GSD-RESCUE-razvan Q14
U 1 1 56100BDF
P 11450 5800
F 0 "Q14" H 11750 5850 50  0000 R CNN
F 1 "IRLML6344TRPBF" H 12250 5700 50  0000 R CNN
F 2 "Housings_SOT-23_SOT-143_TSOT-6:SOT-23" H 11650 5900 29  0001 C CNN
F 3 "" H 11450 5800 60  0000 C CNN
	1    11450 5800
	1    0    0    -1  
$EndComp
$Comp
L GND #PWR043
U 1 1 56101C05
P 11550 6000
F 0 "#PWR043" H 11550 5750 50  0001 C CNN
F 1 "GND" H 11550 5850 50  0000 C CNN
F 2 "" H 11550 6000 60  0000 C CNN
F 3 "" H 11550 6000 60  0000 C CNN
	1    11550 6000
	1    0    0    -1  
$EndComp
Wire Wire Line
	10950 5800 10400 5800
Wire Wire Line
	11550 3200 11550 5600
$Comp
L Q_NMOS_GSD-RESCUE-razvan Q13
U 1 1 56103DAE
P 11250 5300
F 0 "Q13" H 11550 5350 50  0000 R CNN
F 1 "IRLML6344TRPBF" H 12050 5200 50  0000 R CNN
F 2 "Housings_SOT-23_SOT-143_TSOT-6:SOT-23" H 11450 5400 29  0001 C CNN
F 3 "" H 11250 5300 60  0000 C CNN
	1    11250 5300
	1    0    0    -1  
$EndComp
$Comp
L GND #PWR044
U 1 1 56105B56
P 11350 5500
F 0 "#PWR044" H 11350 5250 50  0001 C CNN
F 1 "GND" H 11350 5350 50  0000 C CNN
F 2 "" H 11350 5500 60  0000 C CNN
F 3 "" H 11350 5500 60  0000 C CNN
	1    11350 5500
	1    0    0    -1  
$EndComp
Wire Wire Line
	10750 5300 10200 5300
Wire Wire Line
	11350 5100 11350 3000
Wire Wire Line
	11350 3000 11550 3000
$Comp
L Q_NMOS_GSD-RESCUE-razvan Q12
U 1 1 561072ED
P 11100 4800
F 0 "Q12" H 11400 4850 50  0000 R CNN
F 1 "IRLML6344TRPBF" H 11900 4700 50  0000 R CNN
F 2 "Housings_SOT-23_SOT-143_TSOT-6:SOT-23" H 11300 4900 29  0001 C CNN
F 3 "" H 11100 4800 60  0000 C CNN
	1    11100 4800
	1    0    0    -1  
$EndComp
$Comp
L GND #PWR045
U 1 1 5610740F
P 11200 5000
F 0 "#PWR045" H 11200 4750 50  0001 C CNN
F 1 "GND" H 11200 4850 50  0000 C CNN
F 2 "" H 11200 5000 60  0000 C CNN
F 3 "" H 11200 5000 60  0000 C CNN
	1    11200 5000
	1    0    0    -1  
$EndComp
Wire Wire Line
	10050 4800 10600 4800
Wire Wire Line
	11200 4600 11200 2800
Wire Wire Line
	11200 2800 11550 2800
$Comp
L Q_NMOS_GSD-RESCUE-razvan Q11
U 1 1 56108F1A
P 10950 4300
F 0 "Q11" H 11250 4350 50  0000 R CNN
F 1 "IRLML6344TRPBF" H 11750 4200 50  0000 R CNN
F 2 "Housings_SOT-23_SOT-143_TSOT-6:SOT-23" H 11150 4400 29  0001 C CNN
F 3 "" H 10950 4300 60  0000 C CNN
	1    10950 4300
	1    0    0    -1  
$EndComp
$Comp
L GND #PWR046
U 1 1 561090E9
P 10900 4000
F 0 "#PWR046" H 10900 3750 50  0001 C CNN
F 1 "GND" H 10900 3850 50  0000 C CNN
F 2 "" H 10900 4000 60  0000 C CNN
F 3 "" H 10900 4000 60  0000 C CNN
	1    10900 4000
	1    0    0    -1  
$EndComp
Wire Wire Line
	10450 4300 9900 4300
Wire Wire Line
	11050 4100 11050 2600
Wire Wire Line
	11050 2600 11550 2600
$Comp
L Q_NMOS_GSD-RESCUE-razvan Q10
U 1 1 5610A419
P 10800 3800
F 0 "Q10" H 11100 3850 50  0000 R CNN
F 1 "IRLML6344TRPBF" H 11600 3700 50  0000 R CNN
F 2 "Housings_SOT-23_SOT-143_TSOT-6:SOT-23" H 11000 3900 29  0001 C CNN
F 3 "" H 10800 3800 60  0000 C CNN
	1    10800 3800
	1    0    0    -1  
$EndComp
Wire Wire Line
	9600 3800 10300 3800
Wire Wire Line
	10900 3600 10900 2400
Wire Wire Line
	10900 2400 11550 2400
$Comp
L Q_NMOS_GSD-RESCUE-razvan Q7
U 1 1 5610BB8F
P 9300 5800
F 0 "Q7" H 9600 5850 50  0000 R CNN
F 1 "IRLML6344TRPBF" H 10100 5700 50  0000 R CNN
F 2 "Housings_SOT-23_SOT-143_TSOT-6:SOT-23" H 9500 5900 29  0001 C CNN
F 3 "" H 9300 5800 60  0000 C CNN
	1    9300 5800
	1    0    0    -1  
$EndComp
$Comp
L GND #PWR047
U 1 1 5610BE95
P 9400 6000
F 0 "#PWR047" H 9400 5750 50  0001 C CNN
F 1 "GND" H 9400 5850 50  0000 C CNN
F 2 "" H 9400 6000 60  0000 C CNN
F 3 "" H 9400 6000 60  0000 C CNN
	1    9400 6000
	1    0    0    -1  
$EndComp
Wire Wire Line
	9400 5600 9400 2200
Wire Wire Line
	9400 2200 11550 2200
Wire Wire Line
	8200 5800 8800 5800
$Comp
L Q_NMOS_GSD-RESCUE-razvan Q6
U 1 1 5610D0F4
P 9150 5300
F 0 "Q6" H 9450 5350 50  0000 R CNN
F 1 "IRLML6344TRPBF" H 9950 5200 50  0000 R CNN
F 2 "Housings_SOT-23_SOT-143_TSOT-6:SOT-23" H 9350 5400 29  0001 C CNN
F 3 "" H 9150 5300 60  0000 C CNN
	1    9150 5300
	1    0    0    -1  
$EndComp
$Comp
L GND #PWR048
U 1 1 5610D226
P 9250 5500
F 0 "#PWR048" H 9250 5250 50  0001 C CNN
F 1 "GND" H 9250 5350 50  0000 C CNN
F 2 "" H 9250 5500 60  0000 C CNN
F 3 "" H 9250 5500 60  0000 C CNN
	1    9250 5500
	1    0    0    -1  
$EndComp
Wire Wire Line
	7900 5300 8650 5300
Wire Wire Line
	9250 5100 9250 2000
Wire Wire Line
	9250 2000 11550 2000
$Comp
L Q_NMOS_GSD-RESCUE-razvan Q5
U 1 1 5610E41A
P 9000 4800
F 0 "Q5" H 9300 4850 50  0000 R CNN
F 1 "IRLML6344TRPBF" H 9800 4700 50  0000 R CNN
F 2 "Housings_SOT-23_SOT-143_TSOT-6:SOT-23" H 9200 4900 29  0001 C CNN
F 3 "" H 9000 4800 60  0000 C CNN
	1    9000 4800
	1    0    0    -1  
$EndComp
$Comp
L GND #PWR049
U 1 1 5610E660
P 8950 4550
F 0 "#PWR049" H 8950 4300 50  0001 C CNN
F 1 "GND" H 8950 4400 50  0000 C CNN
F 2 "" H 8950 4550 60  0000 C CNN
F 3 "" H 8950 4550 60  0000 C CNN
	1    8950 4550
	1    0    0    -1  
$EndComp
Wire Wire Line
	7800 4800 8500 4800
Wire Wire Line
	9100 4600 9100 1800
Wire Wire Line
	9100 1800 11550 1800
$Comp
L Q_NMOS_GSD-RESCUE-razvan Q4
U 1 1 5610EFC2
P 8850 4350
F 0 "Q4" H 9150 4400 50  0000 R CNN
F 1 "IRLML6344TRPBF" H 9650 4250 50  0000 R CNN
F 2 "Housings_SOT-23_SOT-143_TSOT-6:SOT-23" H 9050 4450 29  0001 C CNN
F 3 "" H 8850 4350 60  0000 C CNN
	1    8850 4350
	1    0    0    -1  
$EndComp
Wire Wire Line
	8350 4350 7550 4350
$Comp
L GND #PWR050
U 1 1 5610F730
P 9100 5000
F 0 "#PWR050" H 9100 4750 50  0001 C CNN
F 1 "GND" H 9100 4850 50  0000 C CNN
F 2 "" H 9100 5000 60  0000 C CNN
F 3 "" H 9100 5000 60  0000 C CNN
	1    9100 5000
	1    0    0    -1  
$EndComp
Wire Wire Line
	8950 4150 8950 1600
Wire Wire Line
	8950 1600 11550 1600
$Comp
L Q_NMOS_GSD-RESCUE-razvan Q3
U 1 1 5610FCDC
P 8750 3850
F 0 "Q3" H 9050 3900 50  0000 R CNN
F 1 "IRLML6344TRPBF" H 9550 3750 50  0000 R CNN
F 2 "Housings_SOT-23_SOT-143_TSOT-6:SOT-23" H 8950 3950 29  0001 C CNN
F 3 "" H 8750 3850 60  0000 C CNN
	1    8750 3850
	1    0    0    -1  
$EndComp
$Comp
L GND #PWR051
U 1 1 5610FE6C
P 8850 4050
F 0 "#PWR051" H 8850 3800 50  0001 C CNN
F 1 "GND" H 8850 3900 50  0000 C CNN
F 2 "" H 8850 4050 60  0000 C CNN
F 3 "" H 8850 4050 60  0000 C CNN
	1    8850 4050
	1    0    0    -1  
$EndComp
Wire Wire Line
	7400 3850 8250 3850
Wire Wire Line
	8850 3650 8850 1400
Wire Wire Line
	8850 1400 11550 1400
$Comp
L Q_NMOS_GSD-RESCUE-razvan Q2
U 1 1 56110DB7
P 8600 3350
F 0 "Q2" H 8900 3400 50  0000 R CNN
F 1 "IRLML6344TRPBF" H 9400 3250 50  0000 R CNN
F 2 "Housings_SOT-23_SOT-143_TSOT-6:SOT-23" H 8800 3450 29  0001 C CNN
F 3 "" H 8600 3350 60  0000 C CNN
	1    8600 3350
	1    0    0    -1  
$EndComp
$Comp
L GND #PWR052
U 1 1 56110EEF
P 8700 3550
F 0 "#PWR052" H 8700 3300 50  0001 C CNN
F 1 "GND" H 8700 3400 50  0000 C CNN
F 2 "" H 8700 3550 60  0000 C CNN
F 3 "" H 8700 3550 60  0000 C CNN
	1    8700 3550
	1    0    0    -1  
$EndComp
Wire Wire Line
	7500 3350 8100 3350
Wire Wire Line
	8700 3150 8700 1200
Wire Wire Line
	8700 1200 11550 1200
$Comp
L Q_NMOS_GSD-RESCUE-razvan Q1
U 1 1 561119CF
P 8450 2850
F 0 "Q1" H 8750 2900 50  0000 R CNN
F 1 "IRLML6344TRPBF" H 9250 2750 50  0000 R CNN
F 2 "Housings_SOT-23_SOT-143_TSOT-6:SOT-23" H 8650 2950 29  0001 C CNN
F 3 "" H 8450 2850 60  0000 C CNN
	1    8450 2850
	1    0    0    -1  
$EndComp
$Comp
L GND #PWR053
U 1 1 56111B65
P 8550 3050
F 0 "#PWR053" H 8550 2800 50  0001 C CNN
F 1 "GND" H 8550 2900 50  0000 C CNN
F 2 "" H 8550 3050 60  0000 C CNN
F 3 "" H 8550 3050 60  0000 C CNN
	1    8550 3050
	1    0    0    -1  
$EndComp
Wire Wire Line
	7950 2850 7400 2850
Wire Wire Line
	8550 2650 8550 1000
Wire Wire Line
	8550 1000 11550 1000
$Comp
L LIS3DSH U3
U 1 1 56114169
P 13850 8650
F 0 "U3" H 14050 8750 60  0000 C CNN
F 1 "LIS3DSH" H 14350 8750 60  0000 C CNN
F 2 "models: LGA-16-3x3" H 14650 7900 60  0000 C CNN
F 3 "" H 13850 8650 60  0000 C CNN
	1    13850 8650
	1    0    0    -1  
$EndComp
Text Label 14700 8650 0    60   ~ 0
FIXED_LIS302DL_SCK
Wire Wire Line
	14650 8650 15750 8650
Wire Wire Line
	14650 8750 15750 8750
Wire Wire Line
	14650 8850 15750 8850
Wire Wire Line
	14650 8950 15750 8950
$Comp
L Q_PMOS_GSD-RESCUE-razvan Q9
U 1 1 5611825E
P 10300 7400
F 0 "Q9" H 10600 7450 50  0000 R CNN
F 1 "PMV65XPE" H 10950 7350 50  0000 R CNN
F 2 "Housings_SOT-23_SOT-143_TSOT-6:SOT-23" H 10500 7500 29  0001 C CNN
F 3 "" H 10300 7400 60  0000 C CNN
	1    10300 7400
	0    1    -1   0   
$EndComp
$Comp
L Q_NMOS_GSD-RESCUE-razvan Q8
U 1 1 5611840B
P 10200 8000
F 0 "Q8" H 10500 8050 50  0000 R CNN
F 1 "IRLML6344TRPBF" H 11000 7900 50  0000 R CNN
F 2 "Housings_SOT-23_SOT-143_TSOT-6:SOT-23" H 10400 8100 29  0001 C CNN
F 3 "" H 10200 8000 60  0000 C CNN
	1    10200 8000
	1    0    0    -1  
$EndComp
$Comp
L GND #PWR054
U 1 1 5611945D
P 10300 8350
F 0 "#PWR054" H 10300 8100 50  0001 C CNN
F 1 "GND" H 10300 8200 50  0000 C CNN
F 2 "" H 10300 8350 60  0000 C CNN
F 3 "" H 10300 8350 60  0000 C CNN
	1    10300 8350
	1    0    0    -1  
$EndComp
Wire Wire Line
	10300 8350 10300 8200
$Comp
L R R36
U 1 1 5611A12F
P 9850 7700
F 0 "R36" V 9930 7700 50  0000 C CNN
F 1 "10k" V 9850 7700 50  0000 C CNN
F 2 "Resistors_SMD:R_0603" V 9780 7700 30  0001 C CNN
F 3 "" H 9850 7700 30  0000 C CNN
	1    9850 7700
	0    -1   -1   0   
$EndComp
Wire Wire Line
	10100 7300 9050 7300
Wire Wire Line
	9700 7700 9550 7700
Wire Wire Line
	9550 7700 9550 7300
Connection ~ 9550 7300
Wire Wire Line
	10000 7700 10300 7700
Wire Wire Line
	10300 7600 10300 7800
Connection ~ 10300 7700
Wire Wire Line
	10500 7300 11500 7300
Connection ~ 11500 7600
Text Label 8800 8000 0    60   ~ 0
FIXED_LIS302DL_INT2
Wire Wire Line
	8800 8000 10000 8000
$Comp
L CONN_01X04 UART1
U 1 1 5612AB0D
P 9300 9000
F 0 "UART1" H 9300 9250 50  0000 C CNN
F 1 "CONN_01X04" V 9400 9000 50  0000 C CNN
F 2 "Pin_Headers:Pin_Header_Straight_1x04" H 9300 9000 60  0001 C CNN
F 3 "" H 9300 9000 60  0000 C CNN
	1    9300 9000
	1    0    0    -1  
$EndComp
$Comp
L C C3
U 1 1 5612BBE2
P 8800 8600
F 0 "C3" H 8825 8700 50  0000 L CNN
F 1 "100n" H 8825 8500 50  0000 L CNN
F 2 "Capacitors_SMD:C_0805_HandSoldering" H 8838 8450 30  0001 C CNN
F 3 "" H 8800 8600 60  0000 C CNN
	1    8800 8600
	1    0    0    -1  
$EndComp
Wire Wire Line
	9100 8850 9100 8450
Text Label 6650 8450 0    60   ~ 0
5V_FUSED
$Comp
L Q_PMOS_GSD-RESCUE-razvan Q16
U 1 1 5612DB88
P 7900 8550
F 0 "Q16" H 8200 8600 50  0000 R CNN
F 1 "PMV65XPE" H 8550 8500 50  0000 R CNN
F 2 "Housings_SOT-23_SOT-143_TSOT-6:SOT-23" H 8100 8650 29  0001 C CNN
F 3 "" H 7900 8550 60  0000 C CNN
	1    7900 8550
	0    1    -1   0   
$EndComp
$Comp
L Q_NMOS_GSD-RESCUE-razvan Q15
U 1 1 5612DB8E
P 7800 9150
F 0 "Q15" H 8100 9200 50  0000 R CNN
F 1 "IRLML6344TRPBF" H 8150 8900 50  0000 R CNN
F 2 "Housings_SOT-23_SOT-143_TSOT-6:SOT-23" H 8000 9250 29  0001 C CNN
F 3 "" H 7800 9150 60  0000 C CNN
	1    7800 9150
	1    0    0    -1  
$EndComp
$Comp
L GND #PWR055
U 1 1 5612DB94
P 7900 9500
F 0 "#PWR055" H 7900 9250 50  0001 C CNN
F 1 "GND" H 7900 9350 50  0000 C CNN
F 2 "" H 7900 9500 60  0000 C CNN
F 3 "" H 7900 9500 60  0000 C CNN
	1    7900 9500
	1    0    0    -1  
$EndComp
Wire Wire Line
	7900 9500 7900 9350
$Comp
L R R37
U 1 1 5612DB9B
P 7450 8850
F 0 "R37" V 7530 8850 50  0000 C CNN
F 1 "10k" V 7450 8850 50  0000 C CNN
F 2 "Resistors_SMD:R_0603" V 7380 8850 30  0001 C CNN
F 3 "" H 7450 8850 30  0000 C CNN
	1    7450 8850
	0    -1   -1   0   
$EndComp
Wire Wire Line
	7700 8450 6650 8450
Wire Wire Line
	7300 8850 7150 8850
Wire Wire Line
	7150 8850 7150 8450
Connection ~ 7150 8450
Wire Wire Line
	7600 8850 7900 8850
Wire Wire Line
	7900 8750 7900 8950
Connection ~ 7900 8850
Text Label 6400 9150 0    60   ~ 0
FIXED_LIS302DL_INT1
Wire Wire Line
	6400 9150 7600 9150
$Comp
L D_Schottky-RESCUE-razvan D3
U 1 1 5612E19F
P 8400 8450
F 0 "D3" H 8400 8550 50  0000 C CNN
F 1 "D_Schottky" H 8400 8350 50  0000 C CNN
F 2 "Diodes_SMD:SMA_Standard" H 8400 8450 60  0001 C CNN
F 3 "" H 8400 8450 60  0000 C CNN
	1    8400 8450
	1    0    0    -1  
$EndComp
Wire Wire Line
	8250 8450 8100 8450
Wire Wire Line
	9100 8450 8550 8450
Connection ~ 8800 8450
$Comp
L CONN_01X02 P1
U 1 1 56138767
P 13050 950
F 0 "P1" H 13050 1100 50  0000 C CNN
F 1 "EDGE" V 13150 950 50  0000 C CNN
F 2 "models:CON_SURUB" H 13050 950 60  0001 C CNN
F 3 "" H 13050 950 60  0000 C CNN
	1    13050 950 
	1    0    0    -1  
$EndComp
Wire Wire Line
	12850 900  12650 900 
Wire Wire Line
	12650 900  12650 850 
$Comp
L CONN_01X02 P2
U 1 1 56139D3F
P 13050 1250
F 0 "P2" H 13050 1400 50  0000 C CNN
F 1 "EDGE" V 13150 1250 50  0000 C CNN
F 2 "models:CON_SURUB" H 13050 1250 60  0001 C CNN
F 3 "" H 13050 1250 60  0000 C CNN
	1    13050 1250
	1    0    0    -1  
$EndComp
Wire Wire Line
	12850 1300 12450 1300
Wire Wire Line
	12450 1300 12450 1400
$Comp
L CONN_01X02 P3
U 1 1 5613A235
P 13050 1650
F 0 "P3" H 13050 1800 50  0000 C CNN
F 1 "EDGE" V 13150 1650 50  0000 C CNN
F 2 "models:CON_SURUB" H 13050 1650 60  0001 C CNN
F 3 "" H 13050 1650 60  0000 C CNN
	1    13050 1650
	1    0    0    -1  
$EndComp
Wire Wire Line
	12850 1700 12450 1700
Wire Wire Line
	12450 1700 12450 1800
$Comp
L CONN_01X02 P4
U 1 1 5613A8D6
P 13050 2050
F 0 "P4" H 13050 2200 50  0000 C CNN
F 1 "EDGE" V 13150 2050 50  0000 C CNN
F 2 "models:CON_SURUB" H 13050 2050 60  0001 C CNN
F 3 "" H 13050 2050 60  0000 C CNN
	1    13050 2050
	1    0    0    -1  
$EndComp
Wire Wire Line
	12050 2000 12850 2000
Wire Wire Line
	12850 2100 12450 2100
Wire Wire Line
	12450 2100 12450 2200
Wire Wire Line
	12450 2200 12050 2200
$Comp
L CONN_01X02 P5
U 1 1 5613B690
P 13050 2450
F 0 "P5" H 13050 2600 50  0000 C CNN
F 1 "EDGE" V 13150 2450 50  0000 C CNN
F 2 "models:CON_SURUB" H 13050 2450 60  0001 C CNN
F 3 "" H 13050 2450 60  0000 C CNN
	1    13050 2450
	1    0    0    -1  
$EndComp
$Comp
L CONN_01X02 P6
U 1 1 5613B8C1
P 13050 2850
F 0 "P6" H 13050 3000 50  0000 C CNN
F 1 "EDGE" V 13150 2850 50  0000 C CNN
F 2 "models:CON_SURUB" H 13050 2850 60  0001 C CNN
F 3 "" H 13050 2850 60  0000 C CNN
	1    13050 2850
	1    0    0    -1  
$EndComp
$Comp
L CONN_01X02 P7
U 1 1 5613BA1B
P 13050 3250
F 0 "P7" H 13050 3400 50  0000 C CNN
F 1 "EDGE" V 13150 3250 50  0000 C CNN
F 2 "models:CON_SURUB" H 13050 3250 60  0001 C CNN
F 3 "" H 13050 3250 60  0000 C CNN
	1    13050 3250
	1    0    0    -1  
$EndComp
Wire Wire Line
	12650 3400 12650 3300
Wire Wire Line
	12650 3300 12850 3300
Wire Wire Line
	12850 2500 12450 2500
Wire Wire Line
	12450 2500 12450 2600
Wire Wire Line
	12850 2900 12450 2900
Wire Wire Line
	12450 2900 12450 3000
$Comp
L GND #PWR?
U 1 1 561419D5
P 11050 4500
F 0 "#PWR?" H 11050 4250 50  0001 C CNN
F 1 "GND" H 11050 4350 50  0000 C CNN
F 2 "" H 11050 4500 60  0000 C CNN
F 3 "" H 11050 4500 60  0000 C CNN
	1    11050 4500
	1    0    0    -1  
$EndComp
$EndSCHEMATC
