M48
;DRILL file {KiCad (2015-10-05 BZR 6247, Git 2607497)-product} date 10/7/2015 1:31:48 PM
;FORMAT={-:-/ absolute / metric / decimal}
FMAT,2
METRIC,TZ
T1C0.300
T2C0.400
T3C1.000
T4C1.001
T5C1.016
%
G90
G05
M71
T1
X165.13Y-86.35
X167.11Y-77.82
X167.13Y-86.35
X168.46Y-80.26
X168.59Y-75.36
X169.13Y-86.35
X169.35Y-52.01
X169.37Y-54.3
X169.83Y-60.75
X171.8Y-88.43
X175.77Y-88.51
X175.87Y-60.41
X177.21Y-49.8
X177.26Y-45.06
X177.32Y-54.8
X177.67Y-37.72
X179.04Y-41.43
X179.7Y-55.29
X180.54Y-76.19
X182.89Y-57.38
X183.27Y-86.44
X187.59Y-73.89
X188.86Y-66.81
X189.4Y-88.73
X189.82Y-45.8
X191.08Y-43.66
X191.8Y-88.68
X193.72Y-60.37
X195.55Y-41.25
X196.52Y-83.68
X198.12Y-80.82
X199.36Y-60.61
X199.9Y-64.39
X200.41Y-61.88
X206.22Y-37.15
X206.22Y-40.5
X206.23Y-43.87
X206.23Y-47.25
X206.23Y-50.62
X206.23Y-54.
X206.23Y-57.37
X206.23Y-60.75
X206.23Y-64.14
X206.23Y-67.52
X206.23Y-70.9
X206.23Y-74.27
X208.38Y-32.68
X213.07Y-84.19
X215.48Y-88.07
X217.48Y-89.87
X219.4Y-88.39
X219.405Y-86.37
T2
X154.75Y-62.25
X154.76Y-47.03
X154.76Y-57.17
X154.76Y-59.7
X154.76Y-64.8
X154.78Y-54.62
X169.96Y-41.5
X171.05Y-66.525
X171.55Y-65.875
X172.075Y-65.225
X172.35Y-58.49
X172.41Y-38.04
X172.6Y-64.575
X173.1Y-63.925
X173.55Y-47.8
X173.55Y-55.5
X173.625Y-63.275
X174.59Y-73.24
X176.525Y-71.3
X177.375Y-51.8
X177.67Y-72.43
X177.825Y-45.8
X178.02Y-88.1
X178.36Y-73.12
X178.75Y-57.05
X178.825Y-70.625
X179.2Y-54.225
X179.47Y-35.52
X179.5Y-69.95
X179.52Y-83.93
X179.6Y-56.875
X179.775Y-53.625
X180.175Y-69.275
X180.35Y-53.05
X180.475Y-56.75
X180.925Y-52.475
X180.925Y-68.6
X181.38Y-51.79
X181.49Y-55.36
X181.5Y-56.75
X182.075Y-51.325
X182.09Y-72.06
X182.25Y-78.51
X182.65Y-50.75
X182.775Y-67.825
X182.9Y-55.69
X183.225Y-50.175
X183.425Y-67.175
X183.8Y-49.6
X184.075Y-66.525
X184.375Y-49.025
X184.44Y-40.12
X184.725Y-65.875
X184.975Y-48.475
X185.375Y-65.225
X185.675Y-49.2
X185.87Y-88.1
X186.025Y-64.575
X186.325Y-49.85
X186.675Y-63.925
X186.82Y-86.1
X186.975Y-50.5
X187.35Y-63.275
X187.625Y-51.15
X188.25Y-41.65
X188.275Y-51.8
X189.Y-52.525
X189.675Y-54.225
X194.4Y-45.11
X195.97Y-55.09
X196.78Y-55.08
X197.41Y-56.95
X198.Y-35.73
X198.21Y-56.95
X199.01Y-56.95
X199.81Y-56.95
X200.62Y-56.95
X200.75Y-47.6
X201.425Y-55.125
X201.425Y-56.95
X201.6Y-47.6
X201.6Y-49.5
X202.29Y-55.13
X202.3Y-47.2
X202.3Y-49.
X203.47Y-56.3
X204.48Y-47.8
X204.49Y-51.14
X204.49Y-61.32
T3
X146.5Y-36.85
X146.5Y-39.39
X146.5Y-41.93
X146.5Y-44.47
X146.5Y-47.01
X146.5Y-49.55
X146.5Y-52.09
X146.5Y-54.63
X146.5Y-57.17
X146.5Y-59.71
X146.5Y-62.25
X146.5Y-64.79
X146.5Y-67.33
X146.5Y-69.87
X146.5Y-77.575
X146.5Y-80.115
X146.5Y-82.655
X146.5Y-85.195
X149.04Y-36.85
X149.04Y-39.39
X149.04Y-41.93
X149.04Y-44.47
X149.04Y-47.01
X149.04Y-49.55
X149.04Y-52.09
X149.04Y-54.63
X149.04Y-57.17
X149.04Y-59.71
X149.04Y-62.25
X149.04Y-64.79
X149.04Y-67.33
X149.04Y-69.87
X149.04Y-77.575
X149.04Y-80.115
X149.04Y-82.655
X149.04Y-85.195
X151.58Y-36.85
X151.58Y-39.39
X151.58Y-41.93
X151.58Y-44.47
X151.58Y-47.01
X151.58Y-49.55
X151.58Y-52.09
X151.58Y-54.63
X151.58Y-57.17
X151.58Y-59.71
X151.58Y-62.25
X151.58Y-64.79
X151.58Y-67.33
X151.58Y-69.87
X151.58Y-77.575
X151.58Y-80.115
X151.58Y-82.655
X151.58Y-85.195
X165.46Y-38.32
X165.46Y-44.82
X169.96Y-38.32
X169.96Y-44.82
X217.48Y-33.83
X217.48Y-36.37
X217.48Y-39.55
X217.48Y-42.09
X217.48Y-45.255
X217.48Y-47.795
X217.48Y-50.98
X217.48Y-53.52
X217.48Y-56.705
X217.48Y-59.245
X217.48Y-62.405
X217.48Y-64.945
X217.48Y-68.13
X217.48Y-70.67
X217.48Y-76.73
X217.48Y-79.27
X217.48Y-84.63
X217.48Y-87.17
T4
X182.17Y-35.36
X182.17Y-37.9
T5
X182.38Y-82.92
X184.56Y-69.95
X184.92Y-82.92
X186.7Y-35.31
X186.7Y-37.85
X187.1Y-69.95
X187.46Y-82.92
X189.24Y-35.31
X189.24Y-37.85
X189.64Y-69.95
X190.Y-82.92
X191.78Y-35.31
X191.78Y-37.85
X192.18Y-69.95
X194.32Y-35.31
X194.32Y-37.85
X200.05Y-35.75
X200.05Y-38.29
X200.05Y-40.83
X200.05Y-43.37
X200.05Y-45.91
T0
M30
