(module light_terminal_block (layer F.Cu) (tedit 55B33012)
  (fp_text reference REF** (at 5.4 -6) (layer F.SilkS)
    (effects (font (size 1 1) (thickness 0.15)))
  )
  (fp_text value light_terminal_block (at 10.8 -4.6) (layer F.Fab)
    (effects (font (size 1 1) (thickness 0.15)))
  )
  (fp_line (start 38.1 2.8) (end 38.1 -3.5) (layer F.SilkS) (width 0.15))
  (fp_line (start 3.7 2.8) (end 38.1 2.8) (layer F.SilkS) (width 0.15))
  (fp_line (start 6.3 -3.5) (end 38.1 -3.5) (layer F.SilkS) (width 0.15))
  (fp_line (start 0 0) (end 0 2.8) (layer F.SilkS) (width 0.15))
  (fp_line (start 0 2.8) (end 3.7 2.8) (layer F.SilkS) (width 0.15))
  (fp_line (start 0 0) (end 0 -3.5) (layer F.SilkS) (width 0.15))
  (fp_line (start 0 -3.5) (end 6.3 -3.5) (layer F.SilkS) (width 0.15))
  (pad 1 thru_hole circle (at 2.54 0) (size 2 2) (drill 0.8) (layers *.Cu *.Mask F.SilkS))
  (pad 2 thru_hole circle (at 5.08 0) (size 2 2) (drill 0.8) (layers *.Cu *.Mask F.SilkS))
  (pad 3 thru_hole circle (at 7.62 0) (size 2 2) (drill 0.8) (layers *.Cu *.Mask F.SilkS))
  (pad 4 thru_hole circle (at 10.16 0) (size 2 2) (drill 0.8) (layers *.Cu *.Mask F.SilkS))
  (pad 5 thru_hole circle (at 12.7 0) (size 2 2) (drill 0.8) (layers *.Cu *.Mask F.SilkS))
  (pad 6 thru_hole circle (at 15.24 0) (size 2 2) (drill 0.8) (layers *.Cu *.Mask F.SilkS))
  (pad 7 thru_hole circle (at 17.78 0) (size 2 2) (drill 0.8) (layers *.Cu *.Mask F.SilkS))
  (pad 8 thru_hole circle (at 20.32 0) (size 2 2) (drill 0.8) (layers *.Cu *.Mask F.SilkS))
  (pad 9 thru_hole circle (at 22.86 0) (size 2 2) (drill 0.8) (layers *.Cu *.Mask F.SilkS))
  (pad 10 thru_hole circle (at 25.4 0) (size 2 2) (drill 0.8) (layers *.Cu *.Mask F.SilkS))
  (pad 11 thru_hole circle (at 27.94 0) (size 2 2) (drill 0.8) (layers *.Cu *.Mask F.SilkS))
  (pad 12 thru_hole circle (at 30.48 0) (size 2 2) (drill 0.8) (layers *.Cu *.Mask F.SilkS))
  (pad 13 thru_hole circle (at 33.02 0) (size 2 2) (drill 0.8) (layers *.Cu *.Mask F.SilkS))
  (pad 14 thru_hole circle (at 35.56 0) (size 2 2) (drill 0.8) (layers *.Cu *.Mask F.SilkS))
)
