(module PTS645 (layer F.Cu) (tedit 560FDEF3)
  (fp_text reference REF** (at 3 -2.4) (layer F.SilkS)
    (effects (font (size 0.5 0.5) (thickness 0.1)))
  )
  (fp_text value PTS645 (at 3.2 -1.5) (layer F.Fab)
    (effects (font (size 0.5 0.5) (thickness 0.1)))
  )
  (pad 1 thru_hole circle (at 0 0) (size 2 2) (drill 1) (layers *.Cu *.Mask F.SilkS))
  (pad 1 thru_hole circle (at 6.5 0) (size 2 2) (drill 1) (layers *.Cu *.Mask F.SilkS))
  (pad 2 thru_hole circle (at 0 4.5) (size 2 2) (drill 1) (layers *.Cu *.Mask F.SilkS))
  (pad 2 thru_hole circle (at 6.5 4.5) (size 2 2) (drill 1) (layers *.Cu *.Mask F.SilkS))
)
